"Marca Comercial Titular de Registro Nr. Registro  Ingrediente Ativo(Grupo Químico)
Aba 400 WG Nortox Nortox S.A. - Arapongas 2923 Abamectina (avermectina)
Abaday Sumitomo Chemical Brasil Indústria Química S.A. - Maracanaú/CE 1520 lufenurom (benzoiluréia) + tiodicarbe (metilcarbamato de oxima)
Abamectin Nortox 400 WG Nortox S.A. - Arapongas 6020 Abamectina (avermectina)
Acefato CCAB 750 SP CCAB Agro S.A. – São Paulo 38618 acefato (organofosforado)
Acefato Nortox Nortox S.A. - Arapongas 16907 acefato (organofosforado)
Acehero Sabero Organics América S.A. 8311 acefato (organofosforado)
Acetamiprid CCAB 200 SP CCAB Agro S.A. – São Paulo 10812 acetamiprido (neonicotinóide)
Acetamiprid Nortox Nortox S.A. - Arapongas 43619 acetamiprido (neonicotinóide)
Acetamiprid Nortox 200 SP Nortox S.A. - Arapongas 1218 acetamiprido (neonicotinóide)
Actelliclambda Syngenta Proteção de Cultivos Ltda. – São Paulo 9609 lambda-cialotrina (piretróide)

Registros[1/10] - Total de 427
   ",Marca Comercial,Titular de Registro,Nr. Registro ,Ingrediente Ativo(Grupo Químico),Aba 400 WG Nortox,Nortox S.A. - Arapongas,2923,Abamectina (avermectina),Abaday,Sumitomo Chemical Brasil Indústria Química S.A. - Maracanaú/CE,1520,lufenurom (benzoiluréia) + tiodicarbe (metilcarbamato de oxima),Abamectin Nortox 400 WG,Nortox S.A. - Arapongas,6020,Abamectina (avermectina),Acefato CCAB 750 SP,CCAB Agro S.A. – São Paulo,38618,acefato (organofosforado),Acefato Nortox,Nortox S.A. - Arapongas,16907,acefato (organofosforado),Acehero,Sabero Organics América S.A.,8311,acefato (organofosforado),Acetamiprid CCAB 200 SP,CCAB Agro S.A. – São Paulo,10812,acetamiprido (neonicotinóide),Acetamiprid Nortox,Nortox S.A. - Arapongas,43619,acetamiprido (neonicotinóide),Acetamiprid Nortox 200 SP,Nortox S.A. - Arapongas,1218,acetamiprido (neonicotinóide),Actelliclambda,Syngenta Proteção de Cultivos Ltda. – São Paulo,9609,lambda-cialotrina (piretróide),Registros[1/10] - Total de 427
Marca Comercial,Titular de Registro,Nr. Registro ,Ingrediente Ativo(Grupo Químico)
Aba 400 WG Nortox,Nortox S.A. - Arapongas,2923,Abamectina (avermectina)
Abaday,Sumitomo Chemical Brasil Indústria Química S.A. - Maracanaú/CE,1520,lufenurom (benzoiluréia) + tiodicarbe (metilcarbamato de oxima)
Abamectin Nortox 400 WG,Nortox S.A. - Arapongas,6020,Abamectina (avermectina)
Acefato CCAB 750 SP,CCAB Agro S.A. – São Paulo,38618,acefato (organofosforado)
Acefato Nortox,Nortox S.A. - Arapongas,16907,acefato (organofosforado)
Acehero,Sabero Organics América S.A.,8311,acefato (organofosforado)
Acetamiprid CCAB 200 SP,CCAB Agro S.A. – São Paulo,10812,acetamiprido (neonicotinóide)
Acetamiprid Nortox,Nortox S.A. - Arapongas,43619,acetamiprido (neonicotinóide)
Acetamiprid Nortox 200 SP,Nortox S.A. - Arapongas,1218,acetamiprido (neonicotinóide)
Actelliclambda,Syngenta Proteção de Cultivos Ltda. – São Paulo,9609,lambda-cialotrina (piretróide)
Registros[1/10] - Total de 427

"Marca Comercial Titular de Registro Nr. Registro  Ingrediente Ativo(Grupo Químico)
Adage 350 FS Syngenta Proteção de Cultivos Ltda. – São Paulo 6211 tiametoxam (neonicotinóide)
Adver 240 SC Tecnomyl Brasil Distribuidora de Produtos Agrícolas Ltda - Foz do Iguaçu 1522 clorfenapir (análogo de pirazol)
Agrosban Syncrom Assessoria e Comércio de Produtos Agropecuários Ltda. 24522 clorpirifós (organofosforado)
Akito UPL do Brasil Indústria e Comércio de Insumos Agropecuários S.A. - Matriz Ituverava/SP 1703 Beta-Cipermetrina (piretróide)
Alea CTVA Proteção de Cultivos Ltda - Barueri (Tamboré) 7898 Espinosade (espinosinas)
Alika; Terminate Nortox; Syngenta Proteção de Cultivos Ltda. – São Paulo 4106 cipermetrina (piretróide) + tiametoxam (neonicotinóide)
Alon; Buffon; Zarpal; Globachem Proteção de Cultivos do Brasil Ltda. - São Paulo/SP 31422 bifentrina (piretróide) + lufenurom (benzoiluréia)
Alverde Basf S.A. – São Paulo 21117 Metaflumizone (semicarbazone)
Ametista FMC Química do Brasil Ltda. - Campinas 5314 bifentrina (piretróide) + zeta-cipermetrina (piretróide)
Ampligo Syngenta Proteção de Cultivos Ltda. – São Paulo 610 clorantraniliprole (antranilamida) + lambda-cialotrina (piretróide)

Registros[11/20] - Total de 427
   ",Marca Comercial,Titular de Registro,Nr. Registro ,Ingrediente Ativo(Grupo Químico),Adage 350 FS,Syngenta Proteção de Cultivos Ltda. – São Paulo,6211,tiametoxam (neonicotinóide),Adver 240 SC,Tecnomyl Brasil Distribuidora de Produtos Agrícolas Ltda - Foz do Iguaçu,1522,clorfenapir (análogo de pirazol),Agrosban,Syncrom Assessoria e Comércio de Produtos Agropecuários Ltda.,24522,clorpirifós (organofosforado),Akito,UPL do Brasil Indústria e Comércio de Insumos Agropecuários S.A. - Matriz Ituverava/SP,1703,Beta-Cipermetrina (piretróide),Alea,CTVA Proteção de Cultivos Ltda - Barueri (Tamboré),7898,Espinosade (espinosinas),Alika; Terminate Nortox;,Syngenta Proteção de Cultivos Ltda. – São Paulo,4106,cipermetrina (piretróide) + tiametoxam (neonicotinóide),Alon; Buffon; Zarpal;,Globachem Proteção de Cultivos do Brasil Ltda. - São Paulo/SP,31422,bifentrina (piretróide) + lufenurom (benzoiluréia),Alverde,Basf S.A. – São Paulo,21117,Metaflumizone (semicarbazone),Ametista,FMC Química do Brasil Ltda. - Campinas,5314,bifentrina (piretróide) + zeta-cipermetrina (piretróide),Ampligo,Syngenta Proteção de Cultivos Ltda. – São Paulo,610,clorantraniliprole (antranilamida) + lambda-cialotrina (piretróide),Registros[11/20] - Total de 427
Marca Comercial,Titular de Registro,Nr. Registro ,Ingrediente Ativo(Grupo Químico)
Adage 350 FS,Syngenta Proteção de Cultivos Ltda. – São Paulo,6211,tiametoxam (neonicotinóide)
Adver 240 SC,Tecnomyl Brasil Distribuidora de Produtos Agrícolas Ltda - Foz do Iguaçu,1522,clorfenapir (análogo de pirazol)
Agrosban,Syncrom Assessoria e Comércio de Produtos Agropecuários Ltda.,24522,clorpirifós (organofosforado)
Akito,UPL do Brasil Indústria e Comércio de Insumos Agropecuários S.A. - Matriz Ituverava/SP,1703,Beta-Cipermetrina (piretróide)
Alea,CTVA Proteção de Cultivos Ltda - Barueri (Tamboré),7898,Espinosade (espinosinas)
Alika; Terminate Nortox;,Syngenta Proteção de Cultivos Ltda. – São Paulo,4106,cipermetrina (piretróide) + tiametoxam (neonicotinóide)
Alon; Buffon; Zarpal;,Globachem Proteção de Cultivos do Brasil Ltda. - São Paulo/SP,31422,bifentrina (piretróide) + lufenurom (benzoiluréia)
Alverde,Basf S.A. – São Paulo,21117,Metaflumizone (semicarbazone)
Ametista,FMC Química do Brasil Ltda. - Campinas,5314,bifentrina (piretróide) + zeta-cipermetrina (piretróide)
Ampligo,Syngenta Proteção de Cultivos Ltda. – São Paulo,610,clorantraniliprole (antranilamida) + lambda-cialotrina (piretróide)
Registros[11/20] - Total de 427

"Marca Comercial Titular de Registro Nr. Registro  Ingrediente Ativo(Grupo Químico)
Ampligo Pro Syngenta Proteção de Cultivos Ltda. – São Paulo 3916 Abamectina (avermectina) + clorantraniliprole (antranilamida)
Amulet Basf S.A. – São Paulo 1108 fipronil (pirazol)
Amulet TOP Basf S.A. – São Paulo 9618 fipronil (pirazol) + piraclostrobina (estrobilurina) + tiofanato-metílico (benzimidazol (precursor de))
Ankara 350 SC ANASAC Brasil Comercio e Locação de Máquinas Ltda. 18221 tiodicarbe (metilcarbamato de oxima)
Ankor Syngenta Proteção de Cultivos Ltda. – São Paulo 34618 clorantraniliprole (antranilamida) + lambda-cialotrina (piretróide)
Antrimo Basf S.A. – São Paulo 2209 teflubenzurom (benzoiluréia)
Ariete; Lucro; Albaugh Agro Brasil Ltda.- São Paulo 9407 bifentrina (piretróide)
Arpo 800 WG Solus Industria Quimica Ltda. - Jandaia do Sul 523 fipronil (pirazol)
Aslan SL; Bruja; Vahana; Cropchem Ltda - Porto Alegre 23121 acetamiprido (neonicotinóide) + bifentrina (piretróide)
Assaris Sinon do Brasil Ltda. - Porto Alegre /RS. 31618 metomil (metilcarbamato de oxima)

Registros[21/30] - Total de 427
   ",Marca Comercial,Titular de Registro,Nr. Registro ,Ingrediente Ativo(Grupo Químico),Ampligo Pro,Syngenta Proteção de Cultivos Ltda. – São Paulo,3916,Abamectina (avermectina) + clorantraniliprole (antranilamida),Amulet,Basf S.A. – São Paulo,1108,fipronil (pirazol),Amulet TOP,Basf S.A. – São Paulo,9618,fipronil (pirazol) + piraclostrobina (estrobilurina) + tiofanato-metílico (benzimidazol (precursor de)),Ankara 350 SC,ANASAC Brasil Comercio e Locação de Máquinas Ltda.,18221,tiodicarbe (metilcarbamato de oxima),Ankor,Syngenta Proteção de Cultivos Ltda. – São Paulo,34618,clorantraniliprole (antranilamida) + lambda-cialotrina (piretróide),Antrimo,Basf S.A. – São Paulo,2209,teflubenzurom (benzoiluréia),Ariete; Lucro;,Albaugh Agro Brasil Ltda.- São Paulo,9407,bifentrina (piretróide),Arpo 800 WG,Solus Industria Quimica Ltda. - Jandaia do Sul,523,fipronil (pirazol),Aslan SL; Bruja; Vahana;,Cropchem Ltda - Porto Alegre,23121,acetamiprido (neonicotinóide) + bifentrina (piretróide),Assaris,Sinon do Brasil Ltda. - Porto Alegre /RS.,31618,metomil (metilcarbamato de oxima),Registros[21/30] - Total de 427
Marca Comercial,Titular de Registro,Nr. Registro ,Ingrediente Ativo(Grupo Químico)
Ampligo Pro,Syngenta Proteção de Cultivos Ltda. – São Paulo,3916,Abamectina (avermectina) + clorantraniliprole (antranilamida)
Amulet,Basf S.A. – São Paulo,1108,fipronil (pirazol)
Amulet TOP,Basf S.A. – São Paulo,9618,fipronil (pirazol) + piraclostrobina (estrobilurina) + tiofanato-metílico (benzimidazol (precursor de))
Ankara 350 SC,ANASAC Brasil Comercio e Locação de Máquinas Ltda.,18221,tiodicarbe (metilcarbamato de oxima)
Ankor,Syngenta Proteção de Cultivos Ltda. – São Paulo,34618,clorantraniliprole (antranilamida) + lambda-cialotrina (piretróide)
Antrimo,Basf S.A. – São Paulo,2209,teflubenzurom (benzoiluréia)
Ariete; Lucro;,Albaugh Agro Brasil Ltda.- São Paulo,9407,bifentrina (piretróide)
Arpo 800 WG,Solus Industria Quimica Ltda. - Jandaia do Sul,523,fipronil (pirazol)
Aslan SL; Bruja; Vahana;,Cropchem Ltda - Porto Alegre,23121,acetamiprido (neonicotinóide) + bifentrina (piretróide)
Assaris,Sinon do Brasil Ltda. - Porto Alegre /RS.,31618,metomil (metilcarbamato de oxima)
Registros[21/30] - Total de 427

"Marca Comercial Titular de Registro Nr. Registro  Ingrediente Ativo(Grupo Químico)
Atabron Ultra ISK Biosciences do Brasil Defensivos Agricolas Ltda 25521 clorfluazurom (benzoiluréia)
Atabron 50 EC ISK Biosciences do Brasil Defensivos Agricolas Ltda 6894 clorfluazurom (benzoiluréia)
AUG 106 Avgust Crop Protection Importação e Exportação Ltda. 17322 imidacloprido (neonicotinóide)
Augory Syngenta Proteção de Cultivos Ltda. – São Paulo 4021 Abamectina (avermectina)
Avatar FMC Química do Brasil Ltda. - Campinas 1415 indoxacarbe (oxadiazina)
Avatar Evo FMC Química do Brasil Ltda. - Campinas 3400 indoxacarbe (oxadiazina)
Avicta 500 FS Syngenta Proteção de Cultivos Ltda. – São Paulo 20107 Abamectina (avermectina)
Avicta 500 FS Pro Syngenta Proteção de Cultivos Ltda. – São Paulo 2219 Abamectina (avermectina)
ÁvidoBR Ouro Fino Química S.A. - Uberaba 27918 metomil (metilcarbamato de oxima)
Azamax UPL do Brasil Indústria e Comércio de Insumos Agropecuários S.A. - Matriz Ituverava/SP 14807 azadiractina (Tetranortriterpenóide)

Registros[31/40] - Total de 427
   ",Marca Comercial,Titular de Registro,Nr. Registro ,Ingrediente Ativo(Grupo Químico),Atabron Ultra,ISK Biosciences do Brasil Defensivos Agricolas Ltda,25521,clorfluazurom (benzoiluréia),Atabron 50 EC,ISK Biosciences do Brasil Defensivos Agricolas Ltda,6894,clorfluazurom (benzoiluréia),AUG 106,Avgust Crop Protection Importação e Exportação Ltda.,17322,imidacloprido (neonicotinóide),Augory,Syngenta Proteção de Cultivos Ltda. – São Paulo,4021,Abamectina (avermectina),Avatar,FMC Química do Brasil Ltda. - Campinas,1415,indoxacarbe (oxadiazina),Avatar Evo,FMC Química do Brasil Ltda. - Campinas,3400,indoxacarbe (oxadiazina),Avicta 500 FS,Syngenta Proteção de Cultivos Ltda. – São Paulo,20107,Abamectina (avermectina),Avicta 500 FS Pro,Syngenta Proteção de Cultivos Ltda. – São Paulo,2219,Abamectina (avermectina),ÁvidoBR,Ouro Fino Química S.A. - Uberaba,27918,metomil (metilcarbamato de oxima),Azamax,UPL do Brasil Indústria e Comércio de Insumos Agropecuários S.A. - Matriz Ituverava/SP,14807,azadiractina (Tetranortriterpenóide),Registros[31/40] - Total de 427
Marca Comercial,Titular de Registro,Nr. Registro ,Ingrediente Ativo(Grupo Químico)
Atabron Ultra,ISK Biosciences do Brasil Defensivos Agricolas Ltda,25521,clorfluazurom (benzoiluréia)
Atabron 50 EC,ISK Biosciences do Brasil Defensivos Agricolas Ltda,6894,clorfluazurom (benzoiluréia)
AUG 106,Avgust Crop Protection Importação e Exportação Ltda.,17322,imidacloprido (neonicotinóide)
Augory,Syngenta Proteção de Cultivos Ltda. – São Paulo,4021,Abamectina (avermectina)
Avatar,FMC Química do Brasil Ltda. - Campinas,1415,indoxacarbe (oxadiazina)
Avatar Evo,FMC Química do Brasil Ltda. - Campinas,3400,indoxacarbe (oxadiazina)
Avicta 500 FS,Syngenta Proteção de Cultivos Ltda. – São Paulo,20107,Abamectina (avermectina)
Avicta 500 FS Pro,Syngenta Proteção de Cultivos Ltda. – São Paulo,2219,Abamectina (avermectina)
ÁvidoBR,Ouro Fino Química S.A. - Uberaba,27918,metomil (metilcarbamato de oxima)
Azamax,UPL do Brasil Indústria e Comércio de Insumos Agropecuários S.A. - Matriz Ituverava/SP,14807,azadiractina (Tetranortriterpenóide)
Registros[31/40] - Total de 427

"Marca Comercial Titular de Registro Nr. Registro  Ingrediente Ativo(Grupo Químico)
Barão UPL do Brasil Indústria e Comércio de Insumos Agropecuários S.A. - Matriz Ituverava/SP 9212 fipronil (pirazol)
Battus UPL do Brasil Indústria e Comércio de Insumos Agropecuários S.A. - Matriz Ituverava/SP 11812 acetamiprido (neonicotinóide)
Bazuka 216 SL Rotam do Brasil Agroquímica e Produtos Agrícolas Ltda. 3010 metomil (metilcarbamato de oxima)
Bellavi Corteva Agriscience do Brasil Ltda - Barueri (Alphaville) 18621 clorantraniliprole (antranilamida)
Belt Bayer S.A. - São Paulo/ SP 2509 Flubendiamida (Diamida do ácido ftálico)
Belure Basf S.A. – São Paulo 1208 fipronil (pirazol)
Belure TOP Basf S.A. – São Paulo 24118 fipronil (pirazol) + piraclostrobina (estrobilurina) + tiofanato-metílico (benzimidazol (precursor de))
Benforce Iharabras S.A. Indústria Químicas - Sorocaba 31822 fipronil (pirazol)
BequeBR Ouro Fino Química S.A. - Uberaba 23518 fipronil (pirazol)
Bestphos Coromandel Brasil Ltda. 25620 cipermetrina (piretróide) + profenofós (organofosforado)

Registros[41/50] - Total de 427
   ",Marca Comercial,Titular de Registro,Nr. Registro ,Ingrediente Ativo(Grupo Químico),Barão,UPL do Brasil Indústria e Comércio de Insumos Agropecuários S.A. - Matriz Ituverava/SP,9212,fipronil (pirazol),Battus,UPL do Brasil Indústria e Comércio de Insumos Agropecuários S.A. - Matriz Ituverava/SP,11812,acetamiprido (neonicotinóide),Bazuka 216 SL,Rotam do Brasil Agroquímica e Produtos Agrícolas Ltda.,3010,metomil (metilcarbamato de oxima),Bellavi,Corteva Agriscience do Brasil Ltda - Barueri (Alphaville),18621,clorantraniliprole (antranilamida),Belt,Bayer S.A. - São Paulo/ SP,2509,Flubendiamida (Diamida do ácido ftálico),Belure,Basf S.A. – São Paulo,1208,fipronil (pirazol),Belure TOP,Basf S.A. – São Paulo,24118,fipronil (pirazol) + piraclostrobina (estrobilurina) + tiofanato-metílico (benzimidazol (precursor de)),Benforce,Iharabras S.A. Indústria Químicas - Sorocaba,31822,fipronil (pirazol),BequeBR,Ouro Fino Química S.A. - Uberaba,23518,fipronil (pirazol),Bestphos,Coromandel Brasil Ltda.,25620,cipermetrina (piretróide) + profenofós (organofosforado),Registros[41/50] - Total de 427
Marca Comercial,Titular de Registro,Nr. Registro ,Ingrediente Ativo(Grupo Químico)
Barão,UPL do Brasil Indústria e Comércio de Insumos Agropecuários S.A. - Matriz Ituverava/SP,9212,fipronil (pirazol)
Battus,UPL do Brasil Indústria e Comércio de Insumos Agropecuários S.A. - Matriz Ituverava/SP,11812,acetamiprido (neonicotinóide)
Bazuka 216 SL,Rotam do Brasil Agroquímica e Produtos Agrícolas Ltda.,3010,metomil (metilcarbamato de oxima)
Bellavi,Corteva Agriscience do Brasil Ltda - Barueri (Alphaville),18621,clorantraniliprole (antranilamida)
Belt,Bayer S.A. - São Paulo/ SP,2509,Flubendiamida (Diamida do ácido ftálico)
Belure,Basf S.A. – São Paulo,1208,fipronil (pirazol)
Belure TOP,Basf S.A. – São Paulo,24118,fipronil (pirazol) + piraclostrobina (estrobilurina) + tiofanato-metílico (benzimidazol (precursor de))
Benforce,Iharabras S.A. Indústria Químicas - Sorocaba,31822,fipronil (pirazol)
BequeBR,Ouro Fino Química S.A. - Uberaba,23518,fipronil (pirazol)
Bestphos,Coromandel Brasil Ltda.,25620,cipermetrina (piretróide) + profenofós (organofosforado)
Registros[41/50] - Total de 427

"Marca Comercial Titular de Registro Nr. Registro  Ingrediente Ativo(Grupo Químico)
Bifentrina A Nortox Nortox S.A. - Arapongas 16322 acetamiprido (neonicotinóide) + bifentrina (piretróide)
Bifentrina 100 EC Nortox Nortox S.A. - Arapongas 19020 bifentrina (piretróide)
Bifentrina 120 FS FMC Química do Brasil Ltda. - Campinas 3207 bifentrina (piretróide)
Bingo 250 FS CHDS do Brasil Comércio de Insumos Agrícolas - São Miguel do Iguaçu/PR 13521 fipronil (pirazol)
Bingo 800 WG CHDS do Brasil Comércio de Insumos Agrícolas - São Miguel do Iguaçu/PR 36121 fipronil (pirazol)
Bitrin 100 EC; Kiwin 100 EC; Cropchem Ltda - Porto Alegre 19120 bifentrina (piretróide)
Blanes 240 SC Cropchem Ltda - Porto Alegre 1023 metoxifenozida (diacilhidrazina)
Bold; Decision; Iharabras S.A. Indústria Químicas - Sorocaba 8017 acetamiprido (neonicotinóide) + fenpropatrina (piretróide)
Brasão Helm do Brasil Mercantil - São Paulo/SP 9508 lambda-cialotrina (piretróide)
BrilhanteBR Ouro Fino Química S.A. - Uberaba 10010 metomil (metilcarbamato de oxima)

Registros[51/60] - Total de 427
   ",Marca Comercial,Titular de Registro,Nr. Registro ,Ingrediente Ativo(Grupo Químico),Bifentrina A Nortox,Nortox S.A. - Arapongas,16322,acetamiprido (neonicotinóide) + bifentrina (piretróide),Bifentrina 100 EC Nortox,Nortox S.A. - Arapongas,19020,bifentrina (piretróide),Bifentrina 120 FS,FMC Química do Brasil Ltda. - Campinas,3207,bifentrina (piretróide),Bingo 250 FS,CHDS do Brasil Comércio de Insumos Agrícolas - São Miguel do Iguaçu/PR,13521,fipronil (pirazol),Bingo 800 WG,CHDS do Brasil Comércio de Insumos Agrícolas - São Miguel do Iguaçu/PR,36121,fipronil (pirazol),Bitrin 100 EC; Kiwin 100 EC;,Cropchem Ltda - Porto Alegre,19120,bifentrina (piretróide),Blanes 240 SC,Cropchem Ltda - Porto Alegre,1023,metoxifenozida (diacilhidrazina),Bold; Decision;,Iharabras S.A. Indústria Químicas - Sorocaba,8017,acetamiprido (neonicotinóide) + fenpropatrina (piretróide),Brasão,Helm do Brasil Mercantil - São Paulo/SP,9508,lambda-cialotrina (piretróide),BrilhanteBR,Ouro Fino Química S.A. - Uberaba,10010,metomil (metilcarbamato de oxima),Registros[51/60] - Total de 427
Marca Comercial,Titular de Registro,Nr. Registro ,Ingrediente Ativo(Grupo Químico)
Bifentrina A Nortox,Nortox S.A. - Arapongas,16322,acetamiprido (neonicotinóide) + bifentrina (piretróide)
Bifentrina 100 EC Nortox,Nortox S.A. - Arapongas,19020,bifentrina (piretróide)
Bifentrina 120 FS,FMC Química do Brasil Ltda. - Campinas,3207,bifentrina (piretróide)
Bingo 250 FS,CHDS do Brasil Comércio de Insumos Agrícolas - São Miguel do Iguaçu/PR,13521,fipronil (pirazol)
Bingo 800 WG,CHDS do Brasil Comércio de Insumos Agrícolas - São Miguel do Iguaçu/PR,36121,fipronil (pirazol)
Bitrin 100 EC; Kiwin 100 EC;,Cropchem Ltda - Porto Alegre,19120,bifentrina (piretróide)
Blanes 240 SC,Cropchem Ltda - Porto Alegre,1023,metoxifenozida (diacilhidrazina)
Bold; Decision;,Iharabras S.A. Indústria Químicas - Sorocaba,8017,acetamiprido (neonicotinóide) + fenpropatrina (piretróide)
Brasão,Helm do Brasil Mercantil - São Paulo/SP,9508,lambda-cialotrina (piretróide)
BrilhanteBR,Ouro Fino Química S.A. - Uberaba,10010,metomil (metilcarbamato de oxima)
Registros[51/60] - Total de 427

"Marca Comercial Titular de Registro Nr. Registro  Ingrediente Ativo(Grupo Químico)
Brit Ouro Fino Química S.A. - Uberaba 8214 cipermetrina (piretróide)
Brutus UPL do Brasil Indústria e Comércio de Insumos Agropecuários S.A. - Matriz Ituverava/SP 4611 lambda-cialotrina (piretróide)
Bucanero Adama Brasil S.A. - Londrina 7219 lambda-cialotrina (piretróide)
Bulldock 125 SC Bayer S.A. - São Paulo/ SP 1192 beta-ciflutrina (piretróide)
Capataz Ouro Fino Química S.A. - Uberaba 1512 clorpirifós (organofosforado)
Captor ALTA - America Latina Tecnologia Agrícola Ltda.- Curitiba 10415 tiodicarbe (metilcarbamato de oxima)
Capture 400 EC; Talstar 400; Bistar 400; Brigade 400; FMC Química do Brasil Ltda. - Campinas 3307 bifentrina (piretróide)
Carnadine Sumitomo Chemical Brasil Indústria Química S.A. - Maracanaú/CE 24417 acetamiprido (neonicotinóide)
Catterole Rainbow Defensivos Agrícolas Ltda.- Porto Alegre 5623 metoxifenozida (diacilhidrazina)
Cefanol; Acefato 750 Tide; Socker 750; Socker SP; Sipcam Nichino Brasil S.A. - Uberaba/MG 1378704 acefato (organofosforado)

Registros[61/70] - Total de 427
   ",Marca Comercial,Titular de Registro,Nr. Registro ,Ingrediente Ativo(Grupo Químico),Brit,Ouro Fino Química S.A. - Uberaba,8214,cipermetrina (piretróide),Brutus,UPL do Brasil Indústria e Comércio de Insumos Agropecuários S.A. - Matriz Ituverava/SP,4611,lambda-cialotrina (piretróide),Bucanero,Adama Brasil S.A. - Londrina,7219,lambda-cialotrina (piretróide),Bulldock 125 SC,Bayer S.A. - São Paulo/ SP,1192,beta-ciflutrina (piretróide),Capataz,Ouro Fino Química S.A. - Uberaba,1512,clorpirifós (organofosforado),Captor,ALTA - America Latina Tecnologia Agrícola Ltda.- Curitiba,10415,tiodicarbe (metilcarbamato de oxima),Capture 400 EC; Talstar 400; Bistar 400; Brigade 400;,FMC Química do Brasil Ltda. - Campinas,3307,bifentrina (piretróide),Carnadine,Sumitomo Chemical Brasil Indústria Química S.A. - Maracanaú/CE,24417,acetamiprido (neonicotinóide),Catterole,Rainbow Defensivos Agrícolas Ltda.- Porto Alegre,5623,metoxifenozida (diacilhidrazina),Cefanol; Acefato 750 Tide; Socker 750; Socker SP;,Sipcam Nichino Brasil S.A. - Uberaba/MG,1378704,acefato (organofosforado),Registros[61/70] - Total de 427
Marca Comercial,Titular de Registro,Nr. Registro ,Ingrediente Ativo(Grupo Químico)
Brit,Ouro Fino Química S.A. - Uberaba,8214,cipermetrina (piretróide)
Brutus,UPL do Brasil Indústria e Comércio de Insumos Agropecuários S.A. - Matriz Ituverava/SP,4611,lambda-cialotrina (piretróide)
Bucanero,Adama Brasil S.A. - Londrina,7219,lambda-cialotrina (piretróide)
Bulldock 125 SC,Bayer S.A. - São Paulo/ SP,1192,beta-ciflutrina (piretróide)
Capataz,Ouro Fino Química S.A. - Uberaba,1512,clorpirifós (organofosforado)
Captor,ALTA - America Latina Tecnologia Agrícola Ltda.- Curitiba,10415,tiodicarbe (metilcarbamato de oxima)
Capture 400 EC; Talstar 400; Bistar 400; Brigade 400;,FMC Química do Brasil Ltda. - Campinas,3307,bifentrina (piretróide)
Carnadine,Sumitomo Chemical Brasil Indústria Química S.A. - Maracanaú/CE,24417,acetamiprido (neonicotinóide)
Catterole,Rainbow Defensivos Agrícolas Ltda.- Porto Alegre,5623,metoxifenozida (diacilhidrazina)
Cefanol; Acefato 750 Tide; Socker 750; Socker SP;,Sipcam Nichino Brasil S.A. - Uberaba/MG,1378704,acefato (organofosforado)
Registros[61/70] - Total de 427

"Marca Comercial Titular de Registro Nr. Registro  Ingrediente Ativo(Grupo Químico)
Cekat UPL do Brasil Indústria e Comércio de Insumos Agropecuários S.A. - Matriz Ituverava/SP 18520 metomil (metilcarbamato de oxima)
Celphos Tablet Sumitomo Chemical Brasil Indústria Química S.A. - Maracanaú/CE 29921 fosfeto de alumínio (inorgânico precursor de fosfina)
CERNIS Corteva Agriscience do Brasil Ltda - Barueri (Alphaville) 18721 clorantraniliprole (antranilamida)
Certero Bayer S.A. - São Paulo/ SP 4899 triflumurom (benzoiluréia)
Chancella Adama Brasil S.A. - Londrina 30017 fipronil (pirazol)
Charge ISK Biosciences do Brasil Defensivos Agricolas Ltda 24621 clorfluazurom (benzoiluréia)
Checkill 800 WG Sinochem Agro do Brasil Ltda. 22321 tiodicarbe (metilcarbamato de oxima)
Chiave Sup Sipcam Nichino Brasil S.A. - Uberaba/MG 14816 metomil (metilcarbamato de oxima)
Chloromo 480 EC Sabero Organics América S.A. 22618 clorpirifós (organofosforado)
Chlorsab 480 EC Sabero Organics América S.A. 29917 clorpirifós (organofosforado)

Registros[71/80] - Total de 427
   ",Marca Comercial,Titular de Registro,Nr. Registro ,Ingrediente Ativo(Grupo Químico),Cekat,UPL do Brasil Indústria e Comércio de Insumos Agropecuários S.A. - Matriz Ituverava/SP,18520,metomil (metilcarbamato de oxima),Celphos Tablet,Sumitomo Chemical Brasil Indústria Química S.A. - Maracanaú/CE,29921,fosfeto de alumínio (inorgânico precursor de fosfina),CERNIS,Corteva Agriscience do Brasil Ltda - Barueri (Alphaville),18721,clorantraniliprole (antranilamida),Certero,Bayer S.A. - São Paulo/ SP,4899,triflumurom (benzoiluréia),Chancella,Adama Brasil S.A. - Londrina,30017,fipronil (pirazol),Charge,ISK Biosciences do Brasil Defensivos Agricolas Ltda,24621,clorfluazurom (benzoiluréia),Checkill 800 WG,Sinochem Agro do Brasil Ltda.,22321,tiodicarbe (metilcarbamato de oxima),Chiave Sup,Sipcam Nichino Brasil S.A. - Uberaba/MG,14816,metomil (metilcarbamato de oxima),Chloromo 480 EC,Sabero Organics América S.A.,22618,clorpirifós (organofosforado),Chlorsab 480 EC,Sabero Organics América S.A.,29917,clorpirifós (organofosforado),Registros[71/80] - Total de 427
Marca Comercial,Titular de Registro,Nr. Registro ,Ingrediente Ativo(Grupo Químico)
Cekat,UPL do Brasil Indústria e Comércio de Insumos Agropecuários S.A. - Matriz Ituverava/SP,18520,metomil (metilcarbamato de oxima)
Celphos Tablet,Sumitomo Chemical Brasil Indústria Química S.A. - Maracanaú/CE,29921,fosfeto de alumínio (inorgânico precursor de fosfina)
CERNIS,Corteva Agriscience do Brasil Ltda - Barueri (Alphaville),18721,clorantraniliprole (antranilamida)
Certero,Bayer S.A. - São Paulo/ SP,4899,triflumurom (benzoiluréia)
Chancella,Adama Brasil S.A. - Londrina,30017,fipronil (pirazol)
Charge,ISK Biosciences do Brasil Defensivos Agricolas Ltda,24621,clorfluazurom (benzoiluréia)
Checkill 800 WG,Sinochem Agro do Brasil Ltda.,22321,tiodicarbe (metilcarbamato de oxima)
Chiave Sup,Sipcam Nichino Brasil S.A. - Uberaba/MG,14816,metomil (metilcarbamato de oxima)
Chloromo 480 EC,Sabero Organics América S.A.,22618,clorpirifós (organofosforado)
Chlorsab 480 EC,Sabero Organics América S.A.,29917,clorpirifós (organofosforado)
Registros[71/80] - Total de 427

"Marca Comercial Titular de Registro Nr. Registro  Ingrediente Ativo(Grupo Químico)
Ciclone Iharabras S.A. Indústria Químicas - Sorocaba 3306 cromafenozida (diacilhidrazina)
Ciclone 48 EC Tradecorp do Brasil Comércio de insumos Agrícolas Ltda - Hortolândia/SP 20716 clorpirifós (organofosforado)
Cinelli 250 FS Rotam do Brasil Agroquímica e Produtos Agrícolas Ltda. 21517 fipronil (pirazol)
Cipermetrin 250 EC CCAB CCAB Agro S.A. – São Paulo 7612 cipermetrina (piretróide)
Cipermetrina Nortox 250 EC Nortox S.A. - Arapongas 3101 cipermetrina (piretróide)
Cipermetrina 200 EC UPL do Brasil Indústria e Comércio de Insumos Agropecuários S.A. - Matriz Ituverava/SP 658203 cipermetrina (piretróide)
Cipermetrina 250 EC UPL do Brasil Indústria e Comércio de Insumos Agropecuários S.A. - Matriz Ituverava/SP 4015 cipermetrina (piretróide)
Cipermetrina 250 EC CCAB CCAB Agro S.A. – São Paulo 4715 cipermetrina (piretróide)
Cipertrin Prentiss Química Ltda. - Campo Largo/PR 6195 cipermetrina (piretróide)
Clorfenapir CCAB 240 SC CCAB Agro S.A. – São Paulo 28421 clorfenapir (análogo de pirazol)

Registros[81/90] - Total de 427
   ",Marca Comercial,Titular de Registro,Nr. Registro ,Ingrediente Ativo(Grupo Químico),Ciclone,Iharabras S.A. Indústria Químicas - Sorocaba,3306,cromafenozida (diacilhidrazina),Ciclone 48 EC,Tradecorp do Brasil Comércio de insumos Agrícolas Ltda - Hortolândia/SP,20716,clorpirifós (organofosforado),Cinelli 250 FS,Rotam do Brasil Agroquímica e Produtos Agrícolas Ltda.,21517,fipronil (pirazol),Cipermetrin 250 EC CCAB,CCAB Agro S.A. – São Paulo,7612,cipermetrina (piretróide),Cipermetrina Nortox 250 EC,Nortox S.A. - Arapongas,3101,cipermetrina (piretróide),Cipermetrina 200 EC,UPL do Brasil Indústria e Comércio de Insumos Agropecuários S.A. - Matriz Ituverava/SP,658203,cipermetrina (piretróide),Cipermetrina 250 EC,UPL do Brasil Indústria e Comércio de Insumos Agropecuários S.A. - Matriz Ituverava/SP,4015,cipermetrina (piretróide),Cipermetrina 250 EC CCAB,CCAB Agro S.A. – São Paulo,4715,cipermetrina (piretróide),Cipertrin,Prentiss Química Ltda. - Campo Largo/PR,6195,cipermetrina (piretróide),Clorfenapir CCAB 240 SC,CCAB Agro S.A. – São Paulo,28421,clorfenapir (análogo de pirazol),Registros[81/90] - Total de 427
Marca Comercial,Titular de Registro,Nr. Registro ,Ingrediente Ativo(Grupo Químico)
Ciclone,Iharabras S.A. Indústria Químicas - Sorocaba,3306,cromafenozida (diacilhidrazina)
Ciclone 48 EC,Tradecorp do Brasil Comércio de insumos Agrícolas Ltda - Hortolândia/SP,20716,clorpirifós (organofosforado)
Cinelli 250 FS,Rotam do Brasil Agroquímica e Produtos Agrícolas Ltda.,21517,fipronil (pirazol)
Cipermetrin 250 EC CCAB,CCAB Agro S.A. – São Paulo,7612,cipermetrina (piretróide)
Cipermetrina Nortox 250 EC,Nortox S.A. - Arapongas,3101,cipermetrina (piretróide)
Cipermetrina 200 EC,UPL do Brasil Indústria e Comércio de Insumos Agropecuários S.A. - Matriz Ituverava/SP,658203,cipermetrina (piretróide)
Cipermetrina 250 EC,UPL do Brasil Indústria e Comércio de Insumos Agropecuários S.A. - Matriz Ituverava/SP,4015,cipermetrina (piretróide)
Cipermetrina 250 EC CCAB,CCAB Agro S.A. – São Paulo,4715,cipermetrina (piretróide)
Cipertrin,Prentiss Química Ltda. - Campo Largo/PR,6195,cipermetrina (piretróide)
Clorfenapir CCAB 240 SC,CCAB Agro S.A. – São Paulo,28421,clorfenapir (análogo de pirazol)
Registros[81/90] - Total de 427

"Marca Comercial Titular de Registro Nr. Registro  Ingrediente Ativo(Grupo Químico)
Clorfenapir Nortox Nortox S.A. - Arapongas 16220 clorfenapir (análogo de pirazol)
Clorfenapir 240 SC Cropchem Cropchem Ltda - Porto Alegre 17221 clorfenapir (análogo de pirazol)
Clorpiri 480 EC Sharda do Brasil Comércio de Produtos Químicos e Agroquímicos LTDA 45419 clorpirifós (organofosforado)
Clorpirifós Fersol 480 EC Ameribrás Indústria e Comércio Ltda. 7097 clorpirifós (organofosforado)
Clorpirifós Nortox EC Nortox S.A. - Arapongas 12419 clorpirifós (organofosforado)
Clorpirifós Poland 480 EC Sabero Organics América S.A. 16717 clorpirifós (organofosforado)
Clorpirifos Sabero 480 EC Sabero Organics América S.A. 19208 clorpirifós (organofosforado)
Clorpirifós 48 EC Gharda Gharda do Brasil Soluções Agrícolas Ltda. 43219 clorpirifós (organofosforado)
Clorpirifós 480 EC Luba AllierBrasil Agro Ltda. 36822 clorpirifós (organofosforado)
Cofenrin; Orsa; Rainbow Defensivos Agrícolas Ltda.- Porto Alegre 6922 bifentrina (piretróide)

Registros[91/100] - Total de 427
   ",Marca Comercial,Titular de Registro,Nr. Registro ,Ingrediente Ativo(Grupo Químico),Clorfenapir Nortox,Nortox S.A. - Arapongas,16220,clorfenapir (análogo de pirazol),Clorfenapir 240 SC Cropchem,Cropchem Ltda - Porto Alegre,17221,clorfenapir (análogo de pirazol),Clorpiri 480 EC,Sharda do Brasil Comércio de Produtos Químicos e Agroquímicos LTDA,45419,clorpirifós (organofosforado),Clorpirifós Fersol 480 EC,Ameribrás Indústria e Comércio Ltda.,7097,clorpirifós (organofosforado),Clorpirifós Nortox EC,Nortox S.A. - Arapongas,12419,clorpirifós (organofosforado),Clorpirifós Poland 480 EC,Sabero Organics América S.A.,16717,clorpirifós (organofosforado),Clorpirifos Sabero 480 EC,Sabero Organics América S.A.,19208,clorpirifós (organofosforado),Clorpirifós 48 EC Gharda,Gharda do Brasil Soluções Agrícolas Ltda.,43219,clorpirifós (organofosforado),Clorpirifós 480 EC Luba,AllierBrasil Agro Ltda.,36822,clorpirifós (organofosforado),Cofenrin; Orsa;,Rainbow Defensivos Agrícolas Ltda.- Porto Alegre,6922,bifentrina (piretróide),Registros[91/100] - Total de 427
Marca Comercial,Titular de Registro,Nr. Registro ,Ingrediente Ativo(Grupo Químico)
Clorfenapir Nortox,Nortox S.A. - Arapongas,16220,clorfenapir (análogo de pirazol)
Clorfenapir 240 SC Cropchem,Cropchem Ltda - Porto Alegre,17221,clorfenapir (análogo de pirazol)
Clorpiri 480 EC,Sharda do Brasil Comércio de Produtos Químicos e Agroquímicos LTDA,45419,clorpirifós (organofosforado)
Clorpirifós Fersol 480 EC,Ameribrás Indústria e Comércio Ltda.,7097,clorpirifós (organofosforado)
Clorpirifós Nortox EC,Nortox S.A. - Arapongas,12419,clorpirifós (organofosforado)
Clorpirifós Poland 480 EC,Sabero Organics América S.A.,16717,clorpirifós (organofosforado)
Clorpirifos Sabero 480 EC,Sabero Organics América S.A.,19208,clorpirifós (organofosforado)
Clorpirifós 48 EC Gharda,Gharda do Brasil Soluções Agrícolas Ltda.,43219,clorpirifós (organofosforado)
Clorpirifós 480 EC Luba,AllierBrasil Agro Ltda.,36822,clorpirifós (organofosforado)
Cofenrin; Orsa;,Rainbow Defensivos Agrícolas Ltda.- Porto Alegre,6922,bifentrina (piretróide)
Registros[91/100] - Total de 427

"Marca Comercial Titular de Registro Nr. Registro  Ingrediente Ativo(Grupo Químico)
Comboio Helm do Brasil Mercantil - São Paulo/SP 6217 fipronil (pirazol)
Comissário Adama Brasil S.A. - Londrina 10119 bifentrina (piretróide) + diafentiurom (feniltiouréia)
Commanche 200 EC FMC Química do Brasil Ltda. - Campinas 10698 cipermetrina (piretróide)
Compact. Sumitomo Chemical Brasil Indústria Química S.A. - Maracanaú/CE 19118 lufenurom (benzoiluréia)
Connect Bayer S.A. - São Paulo/ SP 4804 beta-ciflutrina (piretróide) + imidacloprido (neonicotinóide)
Copa Nutrien Soluções Agrícolas Ltda. – São Paulo/SP 6017 diflubenzurom (benzoiluréia)
Coremaxx FMC Química do Brasil Ltda. - Campinas 6614 bifentrina (piretróide) + imidacloprido (neonicotinóide)
Counter 150 G AMVAC do Brasil Importação e Comércio de Insumos Agrícolas Ltda 1098 terbufós (organofosforado)
Cratos Adama Brasil S.A. - Londrina 29518 fipronil (pirazol)
Cropstar Bayer S.A. - São Paulo/ SP 2506 imidacloprido (neonicotinóide) + tiodicarbe (metilcarbamato de oxima)

Registros[101/110] - Total de 427
   ",Marca Comercial,Titular de Registro,Nr. Registro ,Ingrediente Ativo(Grupo Químico),Comboio,Helm do Brasil Mercantil - São Paulo/SP,6217,fipronil (pirazol),Comissário,Adama Brasil S.A. - Londrina,10119,bifentrina (piretróide) + diafentiurom (feniltiouréia),Commanche 200 EC,FMC Química do Brasil Ltda. - Campinas,10698,cipermetrina (piretróide),Compact.,Sumitomo Chemical Brasil Indústria Química S.A. - Maracanaú/CE,19118,lufenurom (benzoiluréia),Connect,Bayer S.A. - São Paulo/ SP,4804,beta-ciflutrina (piretróide) + imidacloprido (neonicotinóide),Copa,Nutrien Soluções Agrícolas Ltda. – São Paulo/SP,6017,diflubenzurom (benzoiluréia),Coremaxx,FMC Química do Brasil Ltda. - Campinas,6614,bifentrina (piretróide) + imidacloprido (neonicotinóide),Counter 150 G,AMVAC do Brasil Importação e Comércio de Insumos Agrícolas Ltda,1098,terbufós (organofosforado),Cratos,Adama Brasil S.A. - Londrina,29518,fipronil (pirazol),Cropstar,Bayer S.A. - São Paulo/ SP,2506,imidacloprido (neonicotinóide) + tiodicarbe (metilcarbamato de oxima),Registros[101/110] - Total de 427
Marca Comercial,Titular de Registro,Nr. Registro ,Ingrediente Ativo(Grupo Químico)
Comboio,Helm do Brasil Mercantil - São Paulo/SP,6217,fipronil (pirazol)
Comissário,Adama Brasil S.A. - Londrina,10119,bifentrina (piretróide) + diafentiurom (feniltiouréia)
Commanche 200 EC,FMC Química do Brasil Ltda. - Campinas,10698,cipermetrina (piretróide)
Compact.,Sumitomo Chemical Brasil Indústria Química S.A. - Maracanaú/CE,19118,lufenurom (benzoiluréia)
Connect,Bayer S.A. - São Paulo/ SP,4804,beta-ciflutrina (piretróide) + imidacloprido (neonicotinóide)
Copa,Nutrien Soluções Agrícolas Ltda. – São Paulo/SP,6017,diflubenzurom (benzoiluréia)
Coremaxx,FMC Química do Brasil Ltda. - Campinas,6614,bifentrina (piretróide) + imidacloprido (neonicotinóide)
Counter 150 G,AMVAC do Brasil Importação e Comércio de Insumos Agrícolas Ltda,1098,terbufós (organofosforado)
Cratos,Adama Brasil S.A. - Londrina,29518,fipronil (pirazol)
Cropstar,Bayer S.A. - São Paulo/ SP,2506,imidacloprido (neonicotinóide) + tiodicarbe (metilcarbamato de oxima)
Registros[101/110] - Total de 427

"Marca Comercial Titular de Registro Nr. Registro  Ingrediente Ativo(Grupo Químico)
Cruiser Opti Syngenta Proteção de Cultivos Ltda. – São Paulo 9613 lambda-cialotrina (piretróide) + tiametoxam (neonicotinóide)
Cruiser 350 FS Syngenta Proteção de Cultivos Ltda. – São Paulo 3105 tiametoxam (neonicotinóide)
Cruiser 600 FS Syngenta Proteção de Cultivos Ltda. – São Paulo 8917 tiametoxam (neonicotinóide)
Curanza Syngenta Proteção de Cultivos Ltda. – São Paulo 4821 Ciantraniliprole (antranilamida)
Curanza Pro Syngenta Proteção de Cultivos Ltda. – São Paulo 24520 Ciantraniliprole (antranilamida)
Curanza 600 FS PRO Syngenta Proteção de Cultivos Ltda. – São Paulo 8720 Ciantraniliprole (antranilamida)
Curbix 200 SC Bayer S.A. - São Paulo/ SP 10806 Etiprole (Fenilpirazol)
Curinga Adama Brasil S.A. - Londrina 8199 clorpirifós (organofosforado)
Curyom 550 EC Syngenta Proteção de Cultivos Ltda. – São Paulo 8100 lufenurom (benzoiluréia) + profenofós (organofosforado)
Cyper Copa 250 EC COPALLIANCE - Cooperativa de Consumo de Produtos Agropecuários Ltda - Campinas 3915 cipermetrina (piretróide)

Registros[111/120] - Total de 427
   ",Marca Comercial,Titular de Registro,Nr. Registro ,Ingrediente Ativo(Grupo Químico),Cruiser Opti,Syngenta Proteção de Cultivos Ltda. – São Paulo,9613,lambda-cialotrina (piretróide) + tiametoxam (neonicotinóide),Cruiser 350 FS,Syngenta Proteção de Cultivos Ltda. – São Paulo,3105,tiametoxam (neonicotinóide),Cruiser 600 FS,Syngenta Proteção de Cultivos Ltda. – São Paulo,8917,tiametoxam (neonicotinóide),Curanza,Syngenta Proteção de Cultivos Ltda. – São Paulo,4821,Ciantraniliprole (antranilamida),Curanza Pro,Syngenta Proteção de Cultivos Ltda. – São Paulo,24520,Ciantraniliprole (antranilamida),Curanza 600 FS PRO,Syngenta Proteção de Cultivos Ltda. – São Paulo,8720,Ciantraniliprole (antranilamida),Curbix 200 SC,Bayer S.A. - São Paulo/ SP,10806,Etiprole (Fenilpirazol),Curinga,Adama Brasil S.A. - Londrina,8199,clorpirifós (organofosforado),Curyom 550 EC,Syngenta Proteção de Cultivos Ltda. – São Paulo,8100,lufenurom (benzoiluréia) + profenofós (organofosforado),Cyper Copa 250 EC,COPALLIANCE - Cooperativa de Consumo de Produtos Agropecuários Ltda - Campinas,3915,cipermetrina (piretróide),Registros[111/120] - Total de 427
Marca Comercial,Titular de Registro,Nr. Registro ,Ingrediente Ativo(Grupo Químico)
Cruiser Opti,Syngenta Proteção de Cultivos Ltda. – São Paulo,9613,lambda-cialotrina (piretróide) + tiametoxam (neonicotinóide)
Cruiser 350 FS,Syngenta Proteção de Cultivos Ltda. – São Paulo,3105,tiametoxam (neonicotinóide)
Cruiser 600 FS,Syngenta Proteção de Cultivos Ltda. – São Paulo,8917,tiametoxam (neonicotinóide)
Curanza,Syngenta Proteção de Cultivos Ltda. – São Paulo,4821,Ciantraniliprole (antranilamida)
Curanza Pro,Syngenta Proteção de Cultivos Ltda. – São Paulo,24520,Ciantraniliprole (antranilamida)
Curanza 600 FS PRO,Syngenta Proteção de Cultivos Ltda. – São Paulo,8720,Ciantraniliprole (antranilamida)
Curbix 200 SC,Bayer S.A. - São Paulo/ SP,10806,Etiprole (Fenilpirazol)
Curinga,Adama Brasil S.A. - Londrina,8199,clorpirifós (organofosforado)
Curyom 550 EC,Syngenta Proteção de Cultivos Ltda. – São Paulo,8100,lufenurom (benzoiluréia) + profenofós (organofosforado)
Cyper Copa 250 EC,COPALLIANCE - Cooperativa de Consumo de Produtos Agropecuários Ltda - Campinas,3915,cipermetrina (piretróide)
Registros[111/120] - Total de 427

"Marca Comercial Titular de Registro Nr. Registro  Ingrediente Ativo(Grupo Químico)
Cypermethrin 200 EC FMC Química do Brasil Ltda. - Campinas 1188699 cipermetrina (piretróide)
Cyptrin Prime Tagros Brasil Comércio de Produtos Químicos Ltda. 3715 cipermetrina (piretróide)
Cyptrin 250 CE Sumitomo Chemical Brasil Indústria Química S.A. - Maracanaú/CE 6395 cipermetrina (piretróide)
DalNeem EC Dalneem Brasil Comercio de Produtos Agropecuarios Ltda 9015 azadiractina (Tetranortriterpenóide)
Daniato Ouro Fino Química S.A. - Uberaba 22418 acefato (organofosforado)
Danimen 300 EC Sumitomo Chemical Brasil Indústria Química S.A. - Maracanaú/CE 1678591 fenpropatrina (piretróide)
Davos Tradecorp do Brasil Comércio de insumos Agrícolas Ltda - Hortolândia/SP 9219 lambda-cialotrina (piretróide)
Decis 25 EC Bayer S.A. - São Paulo/ SP 758498 deltametrina (piretróide)
Dermacor Corteva Agriscience do Brasil Ltda - Barueri (Alphaville) 9515 clorantraniliprole (antranilamida)
Difluben 240 SC Sharda do Brasil Comércio de Produtos Químicos e Agroquímicos LTDA 221 diflubenzurom (benzoiluréia)

Registros[121/130] - Total de 427
   ",Marca Comercial,Titular de Registro,Nr. Registro ,Ingrediente Ativo(Grupo Químico),Cypermethrin 200 EC,FMC Química do Brasil Ltda. - Campinas,1188699,cipermetrina (piretróide),Cyptrin Prime,Tagros Brasil Comércio de Produtos Químicos Ltda.,3715,cipermetrina (piretróide),Cyptrin 250 CE,Sumitomo Chemical Brasil Indústria Química S.A. - Maracanaú/CE,6395,cipermetrina (piretróide),DalNeem EC,Dalneem Brasil Comercio de Produtos Agropecuarios Ltda,9015,azadiractina (Tetranortriterpenóide),Daniato,Ouro Fino Química S.A. - Uberaba,22418,acefato (organofosforado),Danimen 300 EC,Sumitomo Chemical Brasil Indústria Química S.A. - Maracanaú/CE,1678591,fenpropatrina (piretróide),Davos,Tradecorp do Brasil Comércio de insumos Agrícolas Ltda - Hortolândia/SP,9219,lambda-cialotrina (piretróide),Decis 25 EC,Bayer S.A. - São Paulo/ SP,758498,deltametrina (piretróide),Dermacor,Corteva Agriscience do Brasil Ltda - Barueri (Alphaville),9515,clorantraniliprole (antranilamida),Difluben 240 SC,Sharda do Brasil Comércio de Produtos Químicos e Agroquímicos LTDA,221,diflubenzurom (benzoiluréia),Registros[121/130] - Total de 427
Marca Comercial,Titular de Registro,Nr. Registro ,Ingrediente Ativo(Grupo Químico)
Cypermethrin 200 EC,FMC Química do Brasil Ltda. - Campinas,1188699,cipermetrina (piretróide)
Cyptrin Prime,Tagros Brasil Comércio de Produtos Químicos Ltda.,3715,cipermetrina (piretróide)
Cyptrin 250 CE,Sumitomo Chemical Brasil Indústria Química S.A. - Maracanaú/CE,6395,cipermetrina (piretróide)
DalNeem EC,Dalneem Brasil Comercio de Produtos Agropecuarios Ltda,9015,azadiractina (Tetranortriterpenóide)
Daniato,Ouro Fino Química S.A. - Uberaba,22418,acefato (organofosforado)
Danimen 300 EC,Sumitomo Chemical Brasil Indústria Química S.A. - Maracanaú/CE,1678591,fenpropatrina (piretróide)
Davos,Tradecorp do Brasil Comércio de insumos Agrícolas Ltda - Hortolândia/SP,9219,lambda-cialotrina (piretróide)
Decis 25 EC,Bayer S.A. - São Paulo/ SP,758498,deltametrina (piretróide)
Dermacor,Corteva Agriscience do Brasil Ltda - Barueri (Alphaville),9515,clorantraniliprole (antranilamida)
Difluben 240 SC,Sharda do Brasil Comércio de Produtos Químicos e Agroquímicos LTDA,221,diflubenzurom (benzoiluréia)
Registros[121/130] - Total de 427

"Marca Comercial Titular de Registro Nr. Registro  Ingrediente Ativo(Grupo Químico)
Diflubenzuron CCAB 480 SC CCAB Agro S.A. – São Paulo 7021 diflubenzurom (benzoiluréia)
Diflubenzuron 240 SC Crop Avgust Crop Protection Importação e Exportação Ltda. 22616 diflubenzurom (benzoiluréia)
Difluchem 240 SC Helm do Brasil Mercantil - São Paulo/SP 16107 diflubenzurom (benzoiluréia)
Diflucrop Agro Import do Brasil Ltda. 31717 diflubenzurom (benzoiluréia)
Diflumax Helm do Brasil Mercantil - São Paulo/SP 16207 diflubenzurom (benzoiluréia)
Diflumax 240 SC Helm Helm do Brasil Mercantil - São Paulo/SP 30117 diflubenzurom (benzoiluréia)
Dimilin UPL do Brasil Indústria e Comércio de Insumos Agropecuários S.A. - Matriz Ituverava/SP 1848591 diflubenzurom (benzoiluréia)
Dimilin 480 SC UPL do Brasil Indústria e Comércio de Insumos Agropecuários S.A. - Matriz Ituverava/SP 31520 diflubenzurom (benzoiluréia)
Dimilin 80 WG UPL do Brasil Indústria e Comércio de Insumos Agropecuários S.A. - Matriz Ituverava/SP 2607 diflubenzurom (benzoiluréia)
Dinky 200 SP; Promenade; Globachem Proteção de Cultivos do Brasil Ltda. - São Paulo/SP 26718 acetamiprido (neonicotinóide)

Registros[131/140] - Total de 427
   ",Marca Comercial,Titular de Registro,Nr. Registro ,Ingrediente Ativo(Grupo Químico),Diflubenzuron CCAB 480 SC,CCAB Agro S.A. – São Paulo,7021,diflubenzurom (benzoiluréia),Diflubenzuron 240 SC Crop,Avgust Crop Protection Importação e Exportação Ltda.,22616,diflubenzurom (benzoiluréia),Difluchem 240 SC,Helm do Brasil Mercantil - São Paulo/SP,16107,diflubenzurom (benzoiluréia),Diflucrop,Agro Import do Brasil Ltda.,31717,diflubenzurom (benzoiluréia),Diflumax,Helm do Brasil Mercantil - São Paulo/SP,16207,diflubenzurom (benzoiluréia),Diflumax 240 SC Helm,Helm do Brasil Mercantil - São Paulo/SP,30117,diflubenzurom (benzoiluréia),Dimilin,UPL do Brasil Indústria e Comércio de Insumos Agropecuários S.A. - Matriz Ituverava/SP,1848591,diflubenzurom (benzoiluréia),Dimilin 480 SC,UPL do Brasil Indústria e Comércio de Insumos Agropecuários S.A. - Matriz Ituverava/SP,31520,diflubenzurom (benzoiluréia),Dimilin 80 WG,UPL do Brasil Indústria e Comércio de Insumos Agropecuários S.A. - Matriz Ituverava/SP,2607,diflubenzurom (benzoiluréia),Dinky 200 SP; Promenade;,Globachem Proteção de Cultivos do Brasil Ltda. - São Paulo/SP,26718,acetamiprido (neonicotinóide),Registros[131/140] - Total de 427
Marca Comercial,Titular de Registro,Nr. Registro ,Ingrediente Ativo(Grupo Químico)
Diflubenzuron CCAB 480 SC,CCAB Agro S.A. – São Paulo,7021,diflubenzurom (benzoiluréia)
Diflubenzuron 240 SC Crop,Avgust Crop Protection Importação e Exportação Ltda.,22616,diflubenzurom (benzoiluréia)
Difluchem 240 SC,Helm do Brasil Mercantil - São Paulo/SP,16107,diflubenzurom (benzoiluréia)
Diflucrop,Agro Import do Brasil Ltda.,31717,diflubenzurom (benzoiluréia)
Diflumax,Helm do Brasil Mercantil - São Paulo/SP,16207,diflubenzurom (benzoiluréia)
Diflumax 240 SC Helm,Helm do Brasil Mercantil - São Paulo/SP,30117,diflubenzurom (benzoiluréia)
Dimilin,UPL do Brasil Indústria e Comércio de Insumos Agropecuários S.A. - Matriz Ituverava/SP,1848591,diflubenzurom (benzoiluréia)
Dimilin 480 SC,UPL do Brasil Indústria e Comércio de Insumos Agropecuários S.A. - Matriz Ituverava/SP,31520,diflubenzurom (benzoiluréia)
Dimilin 80 WG,UPL do Brasil Indústria e Comércio de Insumos Agropecuários S.A. - Matriz Ituverava/SP,2607,diflubenzurom (benzoiluréia)
Dinky 200 SP; Promenade;,Globachem Proteção de Cultivos do Brasil Ltda. - São Paulo/SP,26718,acetamiprido (neonicotinóide)
Registros[131/140] - Total de 427

"Marca Comercial Titular de Registro Nr. Registro  Ingrediente Ativo(Grupo Químico)
Du Dim 80 WG UPL do Brasil Indústria e Comércio de Insumos Agropecuários S.A. - Matriz Ituverava/SP 12408 diflubenzurom (benzoiluréia)
Du Din UPL do Brasil Indústria e Comércio de Insumos Agropecuários S.A. - Matriz Ituverava/SP 12308 diflubenzurom (benzoiluréia)
Durivo Syngenta Proteção de Cultivos Ltda. – São Paulo 9713 clorantraniliprole (antranilamida) + tiametoxam (neonicotinóide)
Eficax Tecnomyl Brasil Distribuidora de Produtos Agrícolas Ltda - Foz do Iguaçu 13716 metomil (metilcarbamato de oxima)
Eforia Syngenta Proteção de Cultivos Ltda. – São Paulo 5210 lambda-cialotrina (piretróide) + tiametoxam (neonicotinóide)
Engeo Syngenta Proteção de Cultivos Ltda. – São Paulo 2402 cipermetrina (piretróide) + tiametoxam (neonicotinóide)
Engeo Pleno S Syngenta Proteção de Cultivos Ltda. – São Paulo 6105 lambda-cialotrina (piretróide) + tiametoxam (neonicotinóide)
Eventra ALTA - America Latina Tecnologia Agrícola Ltda.- Curitiba 13112 fipronil (pirazol)
Exalt CTVA Proteção de Cultivos Ltda - Barueri (Tamboré) 14314 Espinetoram (espinosinas)
Êxito 215 SL Helm do Brasil Mercantil - São Paulo/SP 4516 metomil (metilcarbamato de oxima)

Registros[141/150] - Total de 427
   ",Marca Comercial,Titular de Registro,Nr. Registro ,Ingrediente Ativo(Grupo Químico),Du Dim 80 WG,UPL do Brasil Indústria e Comércio de Insumos Agropecuários S.A. - Matriz Ituverava/SP,12408,diflubenzurom (benzoiluréia),Du Din,UPL do Brasil Indústria e Comércio de Insumos Agropecuários S.A. - Matriz Ituverava/SP,12308,diflubenzurom (benzoiluréia),Durivo,Syngenta Proteção de Cultivos Ltda. – São Paulo,9713,clorantraniliprole (antranilamida) + tiametoxam (neonicotinóide),Eficax,Tecnomyl Brasil Distribuidora de Produtos Agrícolas Ltda - Foz do Iguaçu,13716,metomil (metilcarbamato de oxima),Eforia,Syngenta Proteção de Cultivos Ltda. – São Paulo,5210,lambda-cialotrina (piretróide) + tiametoxam (neonicotinóide),Engeo,Syngenta Proteção de Cultivos Ltda. – São Paulo,2402,cipermetrina (piretróide) + tiametoxam (neonicotinóide),Engeo Pleno S,Syngenta Proteção de Cultivos Ltda. – São Paulo,6105,lambda-cialotrina (piretróide) + tiametoxam (neonicotinóide),Eventra,ALTA - America Latina Tecnologia Agrícola Ltda.- Curitiba,13112,fipronil (pirazol),Exalt,CTVA Proteção de Cultivos Ltda - Barueri (Tamboré),14314,Espinetoram (espinosinas),Êxito 215 SL,Helm do Brasil Mercantil - São Paulo/SP,4516,metomil (metilcarbamato de oxima),Registros[141/150] - Total de 427
Marca Comercial,Titular de Registro,Nr. Registro ,Ingrediente Ativo(Grupo Químico)
Du Dim 80 WG,UPL do Brasil Indústria e Comércio de Insumos Agropecuários S.A. - Matriz Ituverava/SP,12408,diflubenzurom (benzoiluréia)
Du Din,UPL do Brasil Indústria e Comércio de Insumos Agropecuários S.A. - Matriz Ituverava/SP,12308,diflubenzurom (benzoiluréia)
Durivo,Syngenta Proteção de Cultivos Ltda. – São Paulo,9713,clorantraniliprole (antranilamida) + tiametoxam (neonicotinóide)
Eficax,Tecnomyl Brasil Distribuidora de Produtos Agrícolas Ltda - Foz do Iguaçu,13716,metomil (metilcarbamato de oxima)
Eforia,Syngenta Proteção de Cultivos Ltda. – São Paulo,5210,lambda-cialotrina (piretróide) + tiametoxam (neonicotinóide)
Engeo,Syngenta Proteção de Cultivos Ltda. – São Paulo,2402,cipermetrina (piretróide) + tiametoxam (neonicotinóide)
Engeo Pleno S,Syngenta Proteção de Cultivos Ltda. – São Paulo,6105,lambda-cialotrina (piretróide) + tiametoxam (neonicotinóide)
Eventra,ALTA - America Latina Tecnologia Agrícola Ltda.- Curitiba,13112,fipronil (pirazol)
Exalt,CTVA Proteção de Cultivos Ltda - Barueri (Tamboré),14314,Espinetoram (espinosinas)
Êxito 215 SL,Helm do Brasil Mercantil - São Paulo/SP,4516,metomil (metilcarbamato de oxima)
Registros[141/150] - Total de 427

"Marca Comercial Titular de Registro Nr. Registro  Ingrediente Ativo(Grupo Químico)
Expedition CTVA Proteção de Cultivos Ltda - Barueri (Tamboré) 28219 lambda-cialotrina (piretróide) + sulfoxaflor (sulfoxaminas)
Extreme Corteva Agriscience do Brasil Ltda - Barueri (Alphaville) 4709 metomil (metilcarbamato de oxima)
Farra BR Solus Industria Quimica Ltda. - Jandaia do Sul 26221 tiodicarbe (metilcarbamato de oxima)
Fastac Duo Basf S.A. – São Paulo 10913 acetamiprido (neonicotinóide) + alfa-cipermetrina (piretróide)
Fastac 100 SC Basf S.A. – São Paulo 4496 alfa-cipermetrina (piretróide)
Fecyde Tecnomyl Brasil Distribuidora de Produtos Agrícolas Ltda - Foz do Iguaçu 25020 diflubenzurom (benzoiluréia)
Fenix FMC Química do Brasil Ltda. - Campinas 1092 carbossulfano (metilcarbamato de benzofuranila)
Fentrol FMC Química do Brasil Ltda. - Campinas 5704 Gama-cialotrina (piretróide)
Fermag Landevo Quimica do Brasil Ltda. 2518389 fosfeto de magnésio (inorgânico precursor de fosfina)
Feroce UPL do Brasil Indústria e Comércio de Insumos Agropecuários S.A. - Matriz Ituverava/SP 4822 acefato (organofosforado) + bifentrina (piretróide)

Registros[151/160] - Total de 427
   ",Marca Comercial,Titular de Registro,Nr. Registro ,Ingrediente Ativo(Grupo Químico),Expedition,CTVA Proteção de Cultivos Ltda - Barueri (Tamboré),28219,lambda-cialotrina (piretróide) + sulfoxaflor (sulfoxaminas),Extreme,Corteva Agriscience do Brasil Ltda - Barueri (Alphaville),4709,metomil (metilcarbamato de oxima),Farra BR,Solus Industria Quimica Ltda. - Jandaia do Sul,26221,tiodicarbe (metilcarbamato de oxima),Fastac Duo,Basf S.A. – São Paulo,10913,acetamiprido (neonicotinóide) + alfa-cipermetrina (piretróide),Fastac 100 SC,Basf S.A. – São Paulo,4496,alfa-cipermetrina (piretróide),Fecyde,Tecnomyl Brasil Distribuidora de Produtos Agrícolas Ltda - Foz do Iguaçu,25020,diflubenzurom (benzoiluréia),Fenix,FMC Química do Brasil Ltda. - Campinas,1092,carbossulfano (metilcarbamato de benzofuranila),Fentrol,FMC Química do Brasil Ltda. - Campinas,5704,Gama-cialotrina (piretróide),Fermag,Landevo Quimica do Brasil Ltda.,2518389,fosfeto de magnésio (inorgânico precursor de fosfina),Feroce,UPL do Brasil Indústria e Comércio de Insumos Agropecuários S.A. - Matriz Ituverava/SP,4822,acefato (organofosforado) + bifentrina (piretróide),Registros[151/160] - Total de 427
Marca Comercial,Titular de Registro,Nr. Registro ,Ingrediente Ativo(Grupo Químico)
Expedition,CTVA Proteção de Cultivos Ltda - Barueri (Tamboré),28219,lambda-cialotrina (piretróide) + sulfoxaflor (sulfoxaminas)
Extreme,Corteva Agriscience do Brasil Ltda - Barueri (Alphaville),4709,metomil (metilcarbamato de oxima)
Farra BR,Solus Industria Quimica Ltda. - Jandaia do Sul,26221,tiodicarbe (metilcarbamato de oxima)
Fastac Duo,Basf S.A. – São Paulo,10913,acetamiprido (neonicotinóide) + alfa-cipermetrina (piretróide)
Fastac 100 SC,Basf S.A. – São Paulo,4496,alfa-cipermetrina (piretróide)
Fecyde,Tecnomyl Brasil Distribuidora de Produtos Agrícolas Ltda - Foz do Iguaçu,25020,diflubenzurom (benzoiluréia)
Fenix,FMC Química do Brasil Ltda. - Campinas,1092,carbossulfano (metilcarbamato de benzofuranila)
Fentrol,FMC Química do Brasil Ltda. - Campinas,5704,Gama-cialotrina (piretróide)
Fermag,Landevo Quimica do Brasil Ltda.,2518389,fosfeto de magnésio (inorgânico precursor de fosfina)
Feroce,UPL do Brasil Indústria e Comércio de Insumos Agropecuários S.A. - Matriz Ituverava/SP,4822,acefato (organofosforado) + bifentrina (piretróide)
Registros[151/160] - Total de 427

"Marca Comercial Titular de Registro Nr. Registro  Ingrediente Ativo(Grupo Químico)
Fertox Landevo Quimica do Brasil Ltda. 2304 fosfeto de alumínio (inorgânico precursor de fosfina)
Fidalgo Tradecorp do Brasil Comércio de insumos Agrícolas Ltda - Hortolândia/SP 30420 cipermetrina (piretróide)
Fipronil Alta 250 FS ALTA - America Latina Tecnologia Agrícola Ltda.- Curitiba 3214 fipronil (pirazol)
Fipronil BRT 250 FS Unibrás Agro Química Ltda. 11921 fipronil (pirazol)
Fipronil BRT 800 WG Unibrás Agro Química Ltda. 29721 fipronil (pirazol)
Fipronil CCAB 250 FS CCAB Agro S.A. – São Paulo 17920 fipronil (pirazol)
Fipronil CCAB 800 WG CCAB Agro S.A. – São Paulo 9522 fipronil (pirazol)
Fipronil EDS 250 FS Atta Kill Ind. e Com. de Def. Agric. Ltda. – Rio Claro 6821 fipronil (pirazol)
Fipronil EDS 800 WG Atta Kill Ind. e Com. de Def. Agric. Ltda. – Rio Claro 11821 fipronil (pirazol)
Fipronil NAG 250 FS AllierBrasil Agro Ltda. 17022 fipronil (pirazol)

Registros[161/170] - Total de 427
   ",Marca Comercial,Titular de Registro,Nr. Registro ,Ingrediente Ativo(Grupo Químico),Fertox,Landevo Quimica do Brasil Ltda.,2304,fosfeto de alumínio (inorgânico precursor de fosfina),Fidalgo,Tradecorp do Brasil Comércio de insumos Agrícolas Ltda - Hortolândia/SP,30420,cipermetrina (piretróide),Fipronil Alta 250 FS,ALTA - America Latina Tecnologia Agrícola Ltda.- Curitiba,3214,fipronil (pirazol),Fipronil BRT 250 FS,Unibrás Agro Química Ltda.,11921,fipronil (pirazol),Fipronil BRT 800 WG,Unibrás Agro Química Ltda.,29721,fipronil (pirazol),Fipronil CCAB 250 FS,CCAB Agro S.A. – São Paulo,17920,fipronil (pirazol),Fipronil CCAB 800 WG,CCAB Agro S.A. – São Paulo,9522,fipronil (pirazol),Fipronil EDS 250 FS,Atta Kill Ind. e Com. de Def. Agric. Ltda. – Rio Claro,6821,fipronil (pirazol),Fipronil EDS 800 WG,Atta Kill Ind. e Com. de Def. Agric. Ltda. – Rio Claro,11821,fipronil (pirazol),Fipronil NAG 250 FS,AllierBrasil Agro Ltda.,17022,fipronil (pirazol),Registros[161/170] - Total de 427
Marca Comercial,Titular de Registro,Nr. Registro ,Ingrediente Ativo(Grupo Químico)
Fertox,Landevo Quimica do Brasil Ltda.,2304,fosfeto de alumínio (inorgânico precursor de fosfina)
Fidalgo,Tradecorp do Brasil Comércio de insumos Agrícolas Ltda - Hortolândia/SP,30420,cipermetrina (piretróide)
Fipronil Alta 250 FS,ALTA - America Latina Tecnologia Agrícola Ltda.- Curitiba,3214,fipronil (pirazol)
Fipronil BRT 250 FS,Unibrás Agro Química Ltda.,11921,fipronil (pirazol)
Fipronil BRT 800 WG,Unibrás Agro Química Ltda.,29721,fipronil (pirazol)
Fipronil CCAB 250 FS,CCAB Agro S.A. – São Paulo,17920,fipronil (pirazol)
Fipronil CCAB 800 WG,CCAB Agro S.A. – São Paulo,9522,fipronil (pirazol)
Fipronil EDS 250 FS,Atta Kill Ind. e Com. de Def. Agric. Ltda. – Rio Claro,6821,fipronil (pirazol)
Fipronil EDS 800 WG,Atta Kill Ind. e Com. de Def. Agric. Ltda. – Rio Claro,11821,fipronil (pirazol)
Fipronil NAG 250 FS,AllierBrasil Agro Ltda.,17022,fipronil (pirazol)
Registros[161/170] - Total de 427

"Marca Comercial Titular de Registro Nr. Registro  Ingrediente Ativo(Grupo Químico)
Fipronil NAG 800 WG AllierBrasil Agro Ltda. 12021 fipronil (pirazol)
Fipronil Nortox Nortox S.A. - Arapongas 217 fipronil (pirazol)
Fipronil Nortox Max Nortox S.A. - Arapongas 11021 fipronil (pirazol)
Fipronil Nortox 800 WG Nortox S.A. - Arapongas 10412 fipronil (pirazol)
Fipronil ZEI 250 FS Dinagro Agropecuária Ltda. 10621 fipronil (pirazol)
Fipronil ZEI 800 WG Dinagro Agropecuária Ltda. 24321 fipronil (pirazol)
Fipronil 200 SC Gharda Gharda do Brasil Soluções Agrícolas Ltda. 21822 fipronil (pirazol)
Fipronil 80 WG Gharda Gharda do Brasil Soluções Agrícolas Ltda. 11417 fipronil (pirazol)
Fipronil 800 WG CCAB CCAB Agro S.A. – São Paulo 11420 fipronil (pirazol)
Fipronil 800 WG PLS CL1 Proventis Lifescience Defensivos Agrícolas Ltda 9422 fipronil (pirazol)

Registros[171/180] - Total de 427
   ",Marca Comercial,Titular de Registro,Nr. Registro ,Ingrediente Ativo(Grupo Químico),Fipronil NAG 800 WG,AllierBrasil Agro Ltda.,12021,fipronil (pirazol),Fipronil Nortox,Nortox S.A. - Arapongas,217,fipronil (pirazol),Fipronil Nortox Max,Nortox S.A. - Arapongas,11021,fipronil (pirazol),Fipronil Nortox 800 WG,Nortox S.A. - Arapongas,10412,fipronil (pirazol),Fipronil ZEI 250 FS,Dinagro Agropecuária Ltda.,10621,fipronil (pirazol),Fipronil ZEI 800 WG,Dinagro Agropecuária Ltda.,24321,fipronil (pirazol),Fipronil 200 SC Gharda,Gharda do Brasil Soluções Agrícolas Ltda.,21822,fipronil (pirazol),Fipronil 80 WG Gharda,Gharda do Brasil Soluções Agrícolas Ltda.,11417,fipronil (pirazol),Fipronil 800 WG CCAB,CCAB Agro S.A. – São Paulo,11420,fipronil (pirazol),Fipronil 800 WG PLS CL1,Proventis Lifescience Defensivos Agrícolas Ltda,9422,fipronil (pirazol),Registros[171/180] - Total de 427
Marca Comercial,Titular de Registro,Nr. Registro ,Ingrediente Ativo(Grupo Químico)
Fipronil NAG 800 WG,AllierBrasil Agro Ltda.,12021,fipronil (pirazol)
Fipronil Nortox,Nortox S.A. - Arapongas,217,fipronil (pirazol)
Fipronil Nortox Max,Nortox S.A. - Arapongas,11021,fipronil (pirazol)
Fipronil Nortox 800 WG,Nortox S.A. - Arapongas,10412,fipronil (pirazol)
Fipronil ZEI 250 FS,Dinagro Agropecuária Ltda.,10621,fipronil (pirazol)
Fipronil ZEI 800 WG,Dinagro Agropecuária Ltda.,24321,fipronil (pirazol)
Fipronil 200 SC Gharda,Gharda do Brasil Soluções Agrícolas Ltda.,21822,fipronil (pirazol)
Fipronil 80 WG Gharda,Gharda do Brasil Soluções Agrícolas Ltda.,11417,fipronil (pirazol)
Fipronil 800 WG CCAB,CCAB Agro S.A. – São Paulo,11420,fipronil (pirazol)
Fipronil 800 WG PLS CL1,Proventis Lifescience Defensivos Agrícolas Ltda,9422,fipronil (pirazol)
Registros[171/180] - Total de 427

"Marca Comercial Titular de Registro Nr. Registro  Ingrediente Ativo(Grupo Químico)
Fipronil 800 WG Proventis Proventis Lifescience Defensivos Agrícolas Ltda 7222 fipronil (pirazol)
Fipronil 800 WG UPL UPL do Brasil Indústria e Comércio de Insumos Agropecuários S.A. - Matriz Ituverava/SP 36922 fipronil (pirazol)
Fipronil 800 WG Yonon Yonon Biociências e Defensivos Agrícolas Ltda. 26322 fipronil (pirazol)
Fortenza 600 FS Syngenta Proteção de Cultivos Ltda. – São Paulo 7116 Ciantraniliprole (antranilamida)
Fosfeto de Alumínio Biorisk BIORISK- Assessoria e Comércio de Produtos Agrícolas Ltda. 32921 fosfeto de alumínio (inorgânico precursor de fosfina)
Fuoro Syngenta Proteção de Cultivos Ltda. – São Paulo 5919 lufenurom (benzoiluréia)
Fury 180 EW FMC Química do Brasil Ltda. - Campinas 3394 zeta-cipermetrina (piretróide)
Fury 200 EW FMC Química do Brasil Ltda. - Campinas 7098 zeta-cipermetrina (piretróide)
Fury 400 EC FMC Química do Brasil Ltda. - Campinas 10599 zeta-cipermetrina (piretróide)
Futur 300 Bayer S.A. - São Paulo/ SP 4894 tiodicarbe (metilcarbamato de oxima)

Registros[181/190] - Total de 427
   ",Marca Comercial,Titular de Registro,Nr. Registro ,Ingrediente Ativo(Grupo Químico),Fipronil 800 WG Proventis,Proventis Lifescience Defensivos Agrícolas Ltda,7222,fipronil (pirazol),Fipronil 800 WG UPL,UPL do Brasil Indústria e Comércio de Insumos Agropecuários S.A. - Matriz Ituverava/SP,36922,fipronil (pirazol),Fipronil 800 WG Yonon,Yonon Biociências e Defensivos Agrícolas Ltda.,26322,fipronil (pirazol),Fortenza 600 FS,Syngenta Proteção de Cultivos Ltda. – São Paulo,7116,Ciantraniliprole (antranilamida),Fosfeto de Alumínio Biorisk,BIORISK- Assessoria e Comércio de Produtos Agrícolas Ltda.,32921,fosfeto de alumínio (inorgânico precursor de fosfina),Fuoro,Syngenta Proteção de Cultivos Ltda. – São Paulo,5919,lufenurom (benzoiluréia),Fury 180 EW,FMC Química do Brasil Ltda. - Campinas,3394,zeta-cipermetrina (piretróide),Fury 200 EW,FMC Química do Brasil Ltda. - Campinas,7098,zeta-cipermetrina (piretróide),Fury 400 EC,FMC Química do Brasil Ltda. - Campinas,10599,zeta-cipermetrina (piretróide),Futur 300,Bayer S.A. - São Paulo/ SP,4894,tiodicarbe (metilcarbamato de oxima),Registros[181/190] - Total de 427
Marca Comercial,Titular de Registro,Nr. Registro ,Ingrediente Ativo(Grupo Químico)
Fipronil 800 WG Proventis,Proventis Lifescience Defensivos Agrícolas Ltda,7222,fipronil (pirazol)
Fipronil 800 WG UPL,UPL do Brasil Indústria e Comércio de Insumos Agropecuários S.A. - Matriz Ituverava/SP,36922,fipronil (pirazol)
Fipronil 800 WG Yonon,Yonon Biociências e Defensivos Agrícolas Ltda.,26322,fipronil (pirazol)
Fortenza 600 FS,Syngenta Proteção de Cultivos Ltda. – São Paulo,7116,Ciantraniliprole (antranilamida)
Fosfeto de Alumínio Biorisk,BIORISK- Assessoria e Comércio de Produtos Agrícolas Ltda.,32921,fosfeto de alumínio (inorgânico precursor de fosfina)
Fuoro,Syngenta Proteção de Cultivos Ltda. – São Paulo,5919,lufenurom (benzoiluréia)
Fury 180 EW,FMC Química do Brasil Ltda. - Campinas,3394,zeta-cipermetrina (piretróide)
Fury 200 EW,FMC Química do Brasil Ltda. - Campinas,7098,zeta-cipermetrina (piretróide)
Fury 400 EC,FMC Química do Brasil Ltda. - Campinas,10599,zeta-cipermetrina (piretróide)
Futur 300,Bayer S.A. - São Paulo/ SP,4894,tiodicarbe (metilcarbamato de oxima)
Registros[181/190] - Total de 427

"Marca Comercial Titular de Registro Nr. Registro  Ingrediente Ativo(Grupo Químico)
Galgo Prentiss Química Ltda. - Campo Largo/PR 13422 diflubenzurom (benzoiluréia)
Galgotrin Prentiss Química Ltda. - Campo Largo/PR 378907 cipermetrina (piretróide)
Galil SC; Safari; Atreus; Adama Brasil S.A. - Londrina 10012 bifentrina (piretróide) + imidacloprido (neonicotinóide)
Gallaxy 100 EC Adama Brasil S.A. - Londrina 4000 novalurom (benzoiluréia)
Game UPL do Brasil Indústria e Comércio de Insumos Agropecuários S.A. - Matriz Ituverava/SP 1613 lufenurom (benzoiluréia)
Gastoxin Bequisa Indústria Química do Brasil Ltda. 788395 fosfeto de alumínio (inorgânico precursor de fosfina)
Gastoxin B57 Bequisa Indústria Química do Brasil Ltda. 101 fosfeto de alumínio (inorgânico precursor de fosfina)
Gastoxin S Bequisa Indústria Química do Brasil Ltda. 7795 fosfeto de alumínio (inorgânico precursor de fosfina)
Gaucho FS Bayer S.A. - São Paulo/ SP 9498 imidacloprido (neonicotinóide)
GeneralBR Ouro Fino Química S.A. - Uberaba 28619 clorpirifós (organofosforado)

Registros[191/200] - Total de 427
   ",Marca Comercial,Titular de Registro,Nr. Registro ,Ingrediente Ativo(Grupo Químico),Galgo,Prentiss Química Ltda. - Campo Largo/PR,13422,diflubenzurom (benzoiluréia),Galgotrin,Prentiss Química Ltda. - Campo Largo/PR,378907,cipermetrina (piretróide),Galil SC; Safari; Atreus;,Adama Brasil S.A. - Londrina,10012,bifentrina (piretróide) + imidacloprido (neonicotinóide),Gallaxy 100 EC,Adama Brasil S.A. - Londrina,4000,novalurom (benzoiluréia),Game,UPL do Brasil Indústria e Comércio de Insumos Agropecuários S.A. - Matriz Ituverava/SP,1613,lufenurom (benzoiluréia),Gastoxin,Bequisa Indústria Química do Brasil Ltda.,788395,fosfeto de alumínio (inorgânico precursor de fosfina),Gastoxin B57,Bequisa Indústria Química do Brasil Ltda.,101,fosfeto de alumínio (inorgânico precursor de fosfina),Gastoxin S,Bequisa Indústria Química do Brasil Ltda.,7795,fosfeto de alumínio (inorgânico precursor de fosfina),Gaucho FS,Bayer S.A. - São Paulo/ SP,9498,imidacloprido (neonicotinóide),GeneralBR,Ouro Fino Química S.A. - Uberaba,28619,clorpirifós (organofosforado),Registros[191/200] - Total de 427
Marca Comercial,Titular de Registro,Nr. Registro ,Ingrediente Ativo(Grupo Químico)
Galgo,Prentiss Química Ltda. - Campo Largo/PR,13422,diflubenzurom (benzoiluréia)
Galgotrin,Prentiss Química Ltda. - Campo Largo/PR,378907,cipermetrina (piretróide)
Galil SC; Safari; Atreus;,Adama Brasil S.A. - Londrina,10012,bifentrina (piretróide) + imidacloprido (neonicotinóide)
Gallaxy 100 EC,Adama Brasil S.A. - Londrina,4000,novalurom (benzoiluréia)
Game,UPL do Brasil Indústria e Comércio de Insumos Agropecuários S.A. - Matriz Ituverava/SP,1613,lufenurom (benzoiluréia)
Gastoxin,Bequisa Indústria Química do Brasil Ltda.,788395,fosfeto de alumínio (inorgânico precursor de fosfina)
Gastoxin B57,Bequisa Indústria Química do Brasil Ltda.,101,fosfeto de alumínio (inorgânico precursor de fosfina)
Gastoxin S,Bequisa Indústria Química do Brasil Ltda.,7795,fosfeto de alumínio (inorgânico precursor de fosfina)
Gaucho FS,Bayer S.A. - São Paulo/ SP,9498,imidacloprido (neonicotinóide)
GeneralBR,Ouro Fino Química S.A. - Uberaba,28619,clorpirifós (organofosforado)
Registros[191/200] - Total de 427

"Marca Comercial Titular de Registro Nr. Registro  Ingrediente Ativo(Grupo Químico)
Goemon ISK Biosciences do Brasil Defensivos Agricolas Ltda 21221 Ciclaniliprole (antranilamida)
Graolin 500 EC Syngenta Proteção de Cultivos Ltda. – São Paulo 515 pirimifós-metílico (organofosforado)
Haffor CTVA Proteção de Cultivos Ltda - Barueri (Tamboré) 32119 lambda-cialotrina (piretróide) + sulfoxaflor (sulfoxaminas)
Hanaro Iharabras S.A. Indústria Químicas - Sorocaba 7022 Bistriflurom (benzoiluréia)
Hangar Iharabras S.A. Indústria Químicas - Sorocaba 2720 novalurom (benzoiluréia)
Hayate ISK Biosciences do Brasil Defensivos Agricolas Ltda 24221 Ciclaniliprole (antranilamida)
Hero FMC Química do Brasil Ltda. - Campinas 16812 bifentrina (piretróide) + zeta-cipermetrina (piretróide)
Herold SC Avgust Crop Protection Importação e Exportação Ltda. 15016 diflubenzurom (benzoiluréia)
Imidacloprid Nortox Nortox S.A. - Arapongas 11012 imidacloprido (neonicotinóide)
Imidacloprid Nortox 480 SC Nortox S.A. - Arapongas 3123 imidacloprido (neonicotinóide)

Registros[201/210] - Total de 427
   ",Marca Comercial,Titular de Registro,Nr. Registro ,Ingrediente Ativo(Grupo Químico),Goemon,ISK Biosciences do Brasil Defensivos Agricolas Ltda,21221,Ciclaniliprole (antranilamida),Graolin 500 EC,Syngenta Proteção de Cultivos Ltda. – São Paulo,515,pirimifós-metílico (organofosforado),Haffor,CTVA Proteção de Cultivos Ltda - Barueri (Tamboré),32119,lambda-cialotrina (piretróide) + sulfoxaflor (sulfoxaminas),Hanaro,Iharabras S.A. Indústria Químicas - Sorocaba,7022,Bistriflurom (benzoiluréia),Hangar,Iharabras S.A. Indústria Químicas - Sorocaba,2720,novalurom (benzoiluréia),Hayate,ISK Biosciences do Brasil Defensivos Agricolas Ltda,24221,Ciclaniliprole (antranilamida),Hero,FMC Química do Brasil Ltda. - Campinas,16812,bifentrina (piretróide) + zeta-cipermetrina (piretróide),Herold SC,Avgust Crop Protection Importação e Exportação Ltda.,15016,diflubenzurom (benzoiluréia),Imidacloprid Nortox,Nortox S.A. - Arapongas,11012,imidacloprido (neonicotinóide),Imidacloprid Nortox 480 SC,Nortox S.A. - Arapongas,3123,imidacloprido (neonicotinóide),Registros[201/210] - Total de 427
Marca Comercial,Titular de Registro,Nr. Registro ,Ingrediente Ativo(Grupo Químico)
Goemon,ISK Biosciences do Brasil Defensivos Agricolas Ltda,21221,Ciclaniliprole (antranilamida)
Graolin 500 EC,Syngenta Proteção de Cultivos Ltda. – São Paulo,515,pirimifós-metílico (organofosforado)
Haffor,CTVA Proteção de Cultivos Ltda - Barueri (Tamboré),32119,lambda-cialotrina (piretróide) + sulfoxaflor (sulfoxaminas)
Hanaro,Iharabras S.A. Indústria Químicas - Sorocaba,7022,Bistriflurom (benzoiluréia)
Hangar,Iharabras S.A. Indústria Químicas - Sorocaba,2720,novalurom (benzoiluréia)
Hayate,ISK Biosciences do Brasil Defensivos Agricolas Ltda,24221,Ciclaniliprole (antranilamida)
Hero,FMC Química do Brasil Ltda. - Campinas,16812,bifentrina (piretróide) + zeta-cipermetrina (piretróide)
Herold SC,Avgust Crop Protection Importação e Exportação Ltda.,15016,diflubenzurom (benzoiluréia)
Imidacloprid Nortox,Nortox S.A. - Arapongas,11012,imidacloprido (neonicotinóide)
Imidacloprid Nortox 480 SC,Nortox S.A. - Arapongas,3123,imidacloprido (neonicotinóide)
Registros[201/210] - Total de 427

"Marca Comercial Titular de Registro Nr. Registro  Ingrediente Ativo(Grupo Químico)
ÍmparBR Ouro Fino Química S.A. - Uberaba 37019 tiametoxam (neonicotinóide)
Impessive 250 WP Albaugh Agro Brasil Ltda.- São Paulo 1012 diflubenzurom (benzoiluréia)
Imunit Basf S.A. – São Paulo 8806 alfa-cipermetrina (piretróide) + teflubenzurom (benzoiluréia)
Incrível Iharabras S.A. Indústria Químicas - Sorocaba 10813 acetamiprido (neonicotinóide) + alfa-cipermetrina (piretróide)
Indoxacarb CCAB 150 SC CCAB Agro S.A. – São Paulo 7020 indoxacarbe (oxadiazina)
Indoxacarb 15 SC Gharda; Lyra; Gharda do Brasil Soluções Agrícolas Ltda. 6920 indoxacarbe (oxadiazina)
Indoxacarbe 150 EC FMC Química do Brasil Ltda. - Campinas 3019 indoxacarbe (oxadiazina)
Influx Syngenta Proteção de Cultivos Ltda. – São Paulo 6221 Benzoato de Emamectina (avermectina) + lufenurom (benzoiluréia)
Iniciate UPL do Brasil Indústria e Comércio de Insumos Agropecuários S.A. - Matriz Ituverava/SP 27518 fipronil (pirazol)
Inside FS Sumitomo Chemical Brasil Indústria Química S.A. - Maracanaú/CE 12812 Clotianidina (neonicotinóide)

Registros[211/220] - Total de 427
   ",Marca Comercial,Titular de Registro,Nr. Registro ,Ingrediente Ativo(Grupo Químico),ÍmparBR,Ouro Fino Química S.A. - Uberaba,37019,tiametoxam (neonicotinóide),Impessive 250 WP,Albaugh Agro Brasil Ltda.- São Paulo,1012,diflubenzurom (benzoiluréia),Imunit,Basf S.A. – São Paulo,8806,alfa-cipermetrina (piretróide) + teflubenzurom (benzoiluréia),Incrível,Iharabras S.A. Indústria Químicas - Sorocaba,10813,acetamiprido (neonicotinóide) + alfa-cipermetrina (piretróide),Indoxacarb CCAB 150 SC,CCAB Agro S.A. – São Paulo,7020,indoxacarbe (oxadiazina),Indoxacarb 15 SC Gharda; Lyra;,Gharda do Brasil Soluções Agrícolas Ltda.,6920,indoxacarbe (oxadiazina),Indoxacarbe 150 EC,FMC Química do Brasil Ltda. - Campinas,3019,indoxacarbe (oxadiazina),Influx,Syngenta Proteção de Cultivos Ltda. – São Paulo,6221,Benzoato de Emamectina (avermectina) + lufenurom (benzoiluréia),Iniciate,UPL do Brasil Indústria e Comércio de Insumos Agropecuários S.A. - Matriz Ituverava/SP,27518,fipronil (pirazol),Inside FS,Sumitomo Chemical Brasil Indústria Química S.A. - Maracanaú/CE,12812,Clotianidina (neonicotinóide),Registros[211/220] - Total de 427
Marca Comercial,Titular de Registro,Nr. Registro ,Ingrediente Ativo(Grupo Químico)
ÍmparBR,Ouro Fino Química S.A. - Uberaba,37019,tiametoxam (neonicotinóide)
Impessive 250 WP,Albaugh Agro Brasil Ltda.- São Paulo,1012,diflubenzurom (benzoiluréia)
Imunit,Basf S.A. – São Paulo,8806,alfa-cipermetrina (piretróide) + teflubenzurom (benzoiluréia)
Incrível,Iharabras S.A. Indústria Químicas - Sorocaba,10813,acetamiprido (neonicotinóide) + alfa-cipermetrina (piretróide)
Indoxacarb CCAB 150 SC,CCAB Agro S.A. – São Paulo,7020,indoxacarbe (oxadiazina)
Indoxacarb 15 SC Gharda; Lyra;,Gharda do Brasil Soluções Agrícolas Ltda.,6920,indoxacarbe (oxadiazina)
Indoxacarbe 150 EC,FMC Química do Brasil Ltda. - Campinas,3019,indoxacarbe (oxadiazina)
Influx,Syngenta Proteção de Cultivos Ltda. – São Paulo,6221,Benzoato de Emamectina (avermectina) + lufenurom (benzoiluréia)
Iniciate,UPL do Brasil Indústria e Comércio de Insumos Agropecuários S.A. - Matriz Ituverava/SP,27518,fipronil (pirazol)
Inside FS,Sumitomo Chemical Brasil Indústria Química S.A. - Maracanaú/CE,12812,Clotianidina (neonicotinóide)
Registros[211/220] - Total de 427

"Marca Comercial Titular de Registro Nr. Registro  Ingrediente Ativo(Grupo Químico)
Instal WG AllierBrasil Agro Ltda. 29017 fipronil (pirazol)
Instal 250 FS AllierBrasil Agro Ltda. 14321 fipronil (pirazol)
Instivo Syngenta Proteção de Cultivos Ltda. – São Paulo 13415 Abamectina (avermectina) + clorantraniliprole (antranilamida)
Intrepid 240 SC CTVA Proteção de Cultivos Ltda - Barueri (Tamboré) 699 metoxifenozida (diacilhidrazina)
Ishipron ISK Biosciences do Brasil Defensivos Agricolas Ltda 8213 clorfluazurom (benzoiluréia)
Jambtrin 120 EC Rotam do Brasil Agroquímica e Produtos Agrícolas Ltda. 18317 lambda-cialotrina (piretróide)
Java 200 SP Cropchem Ltda - Porto Alegre 11018 acetamiprido (neonicotinóide)
Jess UPL do Brasil Indústria e Comércio de Insumos Agropecuários S.A. - Matriz Ituverava/SP 29717 permetrina (piretróide)
Judoka Tecnomyl Brasil Distribuidora de Produtos Agrícolas Ltda - Foz do Iguaçu 1911 lambda-cialotrina (piretróide)
Judoka Super 250 CS Tecnomyl Brasil Distribuidora de Produtos Agrícolas Ltda - Foz do Iguaçu 23521 lambda-cialotrina (piretróide)

Registros[221/230] - Total de 427
   ",Marca Comercial,Titular de Registro,Nr. Registro ,Ingrediente Ativo(Grupo Químico),Instal WG,AllierBrasil Agro Ltda.,29017,fipronil (pirazol),Instal 250 FS,AllierBrasil Agro Ltda.,14321,fipronil (pirazol),Instivo,Syngenta Proteção de Cultivos Ltda. – São Paulo,13415,Abamectina (avermectina) + clorantraniliprole (antranilamida),Intrepid 240 SC,CTVA Proteção de Cultivos Ltda - Barueri (Tamboré),699,metoxifenozida (diacilhidrazina),Ishipron,ISK Biosciences do Brasil Defensivos Agricolas Ltda,8213,clorfluazurom (benzoiluréia),Jambtrin 120 EC,Rotam do Brasil Agroquímica e Produtos Agrícolas Ltda.,18317,lambda-cialotrina (piretróide),Java 200 SP,Cropchem Ltda - Porto Alegre,11018,acetamiprido (neonicotinóide),Jess,UPL do Brasil Indústria e Comércio de Insumos Agropecuários S.A. - Matriz Ituverava/SP,29717,permetrina (piretróide),Judoka,Tecnomyl Brasil Distribuidora de Produtos Agrícolas Ltda - Foz do Iguaçu,1911,lambda-cialotrina (piretróide),Judoka Super 250 CS,Tecnomyl Brasil Distribuidora de Produtos Agrícolas Ltda - Foz do Iguaçu,23521,lambda-cialotrina (piretróide),Registros[221/230] - Total de 427
Marca Comercial,Titular de Registro,Nr. Registro ,Ingrediente Ativo(Grupo Químico)
Instal WG,AllierBrasil Agro Ltda.,29017,fipronil (pirazol)
Instal 250 FS,AllierBrasil Agro Ltda.,14321,fipronil (pirazol)
Instivo,Syngenta Proteção de Cultivos Ltda. – São Paulo,13415,Abamectina (avermectina) + clorantraniliprole (antranilamida)
Intrepid 240 SC,CTVA Proteção de Cultivos Ltda - Barueri (Tamboré),699,metoxifenozida (diacilhidrazina)
Ishipron,ISK Biosciences do Brasil Defensivos Agricolas Ltda,8213,clorfluazurom (benzoiluréia)
Jambtrin 120 EC,Rotam do Brasil Agroquímica e Produtos Agrícolas Ltda.,18317,lambda-cialotrina (piretróide)
Java 200 SP,Cropchem Ltda - Porto Alegre,11018,acetamiprido (neonicotinóide)
Jess,UPL do Brasil Indústria e Comércio de Insumos Agropecuários S.A. - Matriz Ituverava/SP,29717,permetrina (piretróide)
Judoka,Tecnomyl Brasil Distribuidora de Produtos Agrícolas Ltda - Foz do Iguaçu,1911,lambda-cialotrina (piretróide)
Judoka Super 250 CS,Tecnomyl Brasil Distribuidora de Produtos Agrícolas Ltda - Foz do Iguaçu,23521,lambda-cialotrina (piretróide)
Registros[221/230] - Total de 427

"Marca Comercial Titular de Registro Nr. Registro  Ingrediente Ativo(Grupo Químico)
Kadma UPL do Brasil Indústria e Comércio de Insumos Agropecuários S.A. - Matriz Ituverava/SP 6814 metomil (metilcarbamato de oxima)
Kaiso Sorbie Sumitomo Chemical Brasil Indústria Química S.A. - Maracanaú/CE 18917 lambda-cialotrina (piretróide)
Kaiso Sorbie BR Sumitomo Chemical Brasil Indústria Química S.A. - Maracanaú/CE 10616 lambda-cialotrina (piretróide)
Kaiso 250 CS Sumitomo Chemical Brasil Indústria Química S.A. - Maracanaú/CE 13811 lambda-cialotrina (piretróide)
Kalontra Basf S.A. – São Paulo 2109 teflubenzurom (benzoiluréia)
Karate Zeon 250 CS Syngenta Proteção de Cultivos Ltda. – São Paulo 8799 lambda-cialotrina (piretróide)
Karate Zeon 50 CS Syngenta Proteção de Cultivos Ltda. – São Paulo 1700 lambda-cialotrina (piretróide)
Keepdry Irrigação Dias Cruz Ltda - ME 600 terra diatomácea (inorgânico)
Keshet 25 EC Adama Brasil S.A. - Londrina 9201 deltametrina (piretróide)
Klorpan 480 EC Sumitomo Chemical Brasil Indústria Química S.A. - Maracanaú/CE 7899 clorpirifós (organofosforado)

Registros[231/240] - Total de 427
   ",Marca Comercial,Titular de Registro,Nr. Registro ,Ingrediente Ativo(Grupo Químico),Kadma,UPL do Brasil Indústria e Comércio de Insumos Agropecuários S.A. - Matriz Ituverava/SP,6814,metomil (metilcarbamato de oxima),Kaiso Sorbie,Sumitomo Chemical Brasil Indústria Química S.A. - Maracanaú/CE,18917,lambda-cialotrina (piretróide),Kaiso Sorbie BR,Sumitomo Chemical Brasil Indústria Química S.A. - Maracanaú/CE,10616,lambda-cialotrina (piretróide),Kaiso 250 CS,Sumitomo Chemical Brasil Indústria Química S.A. - Maracanaú/CE,13811,lambda-cialotrina (piretróide),Kalontra,Basf S.A. – São Paulo,2109,teflubenzurom (benzoiluréia),Karate Zeon 250 CS,Syngenta Proteção de Cultivos Ltda. – São Paulo,8799,lambda-cialotrina (piretróide),Karate Zeon 50 CS,Syngenta Proteção de Cultivos Ltda. – São Paulo,1700,lambda-cialotrina (piretróide),Keepdry,Irrigação Dias Cruz Ltda - ME,600,terra diatomácea (inorgânico),Keshet 25 EC,Adama Brasil S.A. - Londrina,9201,deltametrina (piretróide),Klorpan 480 EC,Sumitomo Chemical Brasil Indústria Química S.A. - Maracanaú/CE,7899,clorpirifós (organofosforado),Registros[231/240] - Total de 427
Marca Comercial,Titular de Registro,Nr. Registro ,Ingrediente Ativo(Grupo Químico)
Kadma,UPL do Brasil Indústria e Comércio de Insumos Agropecuários S.A. - Matriz Ituverava/SP,6814,metomil (metilcarbamato de oxima)
Kaiso Sorbie,Sumitomo Chemical Brasil Indústria Química S.A. - Maracanaú/CE,18917,lambda-cialotrina (piretróide)
Kaiso Sorbie BR,Sumitomo Chemical Brasil Indústria Química S.A. - Maracanaú/CE,10616,lambda-cialotrina (piretróide)
Kaiso 250 CS,Sumitomo Chemical Brasil Indústria Química S.A. - Maracanaú/CE,13811,lambda-cialotrina (piretróide)
Kalontra,Basf S.A. – São Paulo,2109,teflubenzurom (benzoiluréia)
Karate Zeon 250 CS,Syngenta Proteção de Cultivos Ltda. – São Paulo,8799,lambda-cialotrina (piretróide)
Karate Zeon 50 CS,Syngenta Proteção de Cultivos Ltda. – São Paulo,1700,lambda-cialotrina (piretróide)
Keepdry,Irrigação Dias Cruz Ltda - ME,600,terra diatomácea (inorgânico)
Keshet 25 EC,Adama Brasil S.A. - Londrina,9201,deltametrina (piretróide)
Klorpan 480 EC,Sumitomo Chemical Brasil Indústria Química S.A. - Maracanaú/CE,7899,clorpirifós (organofosforado)
Registros[231/240] - Total de 427

