Classificação,Nome Científico,Nome(s) Alternativo(s),Cultura
Consulta de Praga
 Dados da Praga, Dados da Praga
 Dados da Praga
"Classificação Nome Científico Nome(s) Alternativo(s) Cultura
Insetos Agrotis ipsilon Lagarta-rosca Soja
Insetos Anticarsia gemmatalis Lagarta-da-soja; Lagarta-desfolhadora Soja
Insetos Aphis rumicis Pulgão-do-feijoeiro Soja
Insetos Aracanthus mourei Torrãozinho Soja
Insetos Aracanthus mourei Torrãozinho Soja
Insetos Aracanthus sp. Torrãozinho Soja
Insetos Atta sexdens rubropilosa Saúva-limão; Saúva-vermelha Soja
Insetos Bemisia tabaci Mosca-branca Soja
Insetos Bemisia tabaci biótipo B Mosca-branca Soja
Insetos Bemisia tabaci raça B Mosca-branca Soja


   ",Classificação,Nome Científico,Nome(s) Alternativo(s),Cultura,Insetos,Agrotis ipsilon,Lagarta-rosca,Soja,Insetos,Anticarsia gemmatalis,Lagarta-da-soja; Lagarta-desfolhadora,Soja,Insetos,Aphis rumicis,Pulgão-do-feijoeiro,Soja,Insetos,Aracanthus mourei,Torrãozinho,Soja,Insetos,Aracanthus mourei,Torrãozinho,Soja,Insetos,Aracanthus sp.,Torrãozinho,Soja,Insetos,Atta sexdens rubropilosa,Saúva-limão; Saúva-vermelha,Soja,Insetos,Bemisia tabaci,Mosca-branca,Soja,Insetos,Bemisia tabaci biótipo B,Mosca-branca,Soja,Insetos,Bemisia tabaci raça B,Mosca-branca,Soja, ,, 
Classificação,Nome Científico,Nome(s) Alternativo(s),Cultura
Insetos,Agrotis ipsilon,Lagarta-rosca,Soja
Insetos,Anticarsia gemmatalis,Lagarta-da-soja; Lagarta-desfolhadora,Soja
Insetos,Aphis rumicis,Pulgão-do-feijoeiro,Soja
Insetos,Aracanthus mourei,Torrãozinho,Soja
Insetos,Aracanthus mourei,Torrãozinho,Soja
Insetos,Aracanthus sp.,Torrãozinho,Soja
Insetos,Atta sexdens rubropilosa,Saúva-limão; Saúva-vermelha,Soja
Insetos,Bemisia tabaci,Mosca-branca,Soja
Insetos,Bemisia tabaci biótipo B,Mosca-branca,Soja
Insetos,Bemisia tabaci raça B,Mosca-branca,Soja
 ,, 
Classificação,Nome Científico,Nome(s) Alternativo(s),Cultura
Consulta de Praga
 Dados da Praga, Dados da Praga
 Dados da Praga
"Classificação Nome Científico Nome(s) Alternativo(s) Cultura
Insetos Caliothrips brasiliensis Tipes Soja
Insetos Caliothrips phaseoli Tripes; Tripes-do-feijoeiro Soja
Insetos Callosobruchus maculatus Caruncho Soja
Insetos Callosobruchus maculatus Caruncho Soja
Insetos Cerotoma arcuata tingomariana Vaquinha-preta-e-amarela Soja
Insetos Chrysodeixis includens Lagarta-falsa-medideira. Soja
Insetos Colias lesbia pyrrhothea Lagarta-da-alfafa Soja
Insetos Corcyra cephalonica Traça Soja
Insetos Cornitermes cumulans Cupim Soja
Insetos Cornitermes snyderi Cupim Soja


   ",Classificação,Nome Científico,Nome(s) Alternativo(s),Cultura,Insetos,Caliothrips brasiliensis,Tipes,Soja,Insetos,Caliothrips phaseoli,Tripes; Tripes-do-feijoeiro,Soja,Insetos,Callosobruchus maculatus,Caruncho,Soja,Insetos,Callosobruchus maculatus,Caruncho,Soja,Insetos,Cerotoma arcuata tingomariana,Vaquinha-preta-e-amarela,Soja,Insetos,Chrysodeixis includens,Lagarta-falsa-medideira.,Soja,Insetos,Colias lesbia pyrrhothea,Lagarta-da-alfafa,Soja,Insetos,Corcyra cephalonica,Traça,Soja,Insetos,Cornitermes cumulans,Cupim,Soja,Insetos,Cornitermes snyderi,Cupim,Soja, ,, 
Classificação,Nome Científico,Nome(s) Alternativo(s),Cultura
Insetos,Caliothrips brasiliensis,Tipes,Soja
Insetos,Caliothrips phaseoli,Tripes; Tripes-do-feijoeiro,Soja
Insetos,Callosobruchus maculatus,Caruncho,Soja
Insetos,Callosobruchus maculatus,Caruncho,Soja
Insetos,Cerotoma arcuata tingomariana,Vaquinha-preta-e-amarela,Soja
Insetos,Chrysodeixis includens,Lagarta-falsa-medideira.,Soja
Insetos,Colias lesbia pyrrhothea,Lagarta-da-alfafa,Soja
Insetos,Corcyra cephalonica,Traça,Soja
Insetos,Cornitermes cumulans,Cupim,Soja
Insetos,Cornitermes snyderi,Cupim,Soja
 ,, 
Classificação,Nome Científico,Nome(s) Alternativo(s),Cultura
Consulta de Praga
 Dados da Praga, Dados da Praga
 Dados da Praga
"Classificação Nome Científico Nome(s) Alternativo(s) Cultura
Insetos Crysodeixis includens Lagarta-falsa-medideira Soja
Insetos Diabrotica speciosa Larva-alfinete; Vaquinha-verde-amarela Soja
Insetos Dichelops furcatus Percevejo-barriga-verde Soja
Insetos Dichelops melacanthus Percevejo barriga verde Soja
Insetos Edessa meditabunda Fedorento; Percevejo-asa-preta Soja
Insetos Elasmopalpus lignosellus Broca-do-colo; Lagarta-elasmo Soja
Insetos Empoasca kraemeri Cigarrinha; Cigarrinha-verde Soja
Insetos Epicauta atomaria Burrinho-da-batatinha; Vaquinha-das-solanáceas Soja
Insetos Epinotia aporema Broca-das-axilas; Broca-das-axilas-da-soja Soja
Insetos Etiella zinckenella Broca-da-vagem; Lagarta-das-vagens Soja


   ",Classificação,Nome Científico,Nome(s) Alternativo(s),Cultura,Insetos,Crysodeixis includens,Lagarta-falsa-medideira,Soja,Insetos,Diabrotica speciosa,Larva-alfinete; Vaquinha-verde-amarela,Soja,Insetos,Dichelops furcatus,Percevejo-barriga-verde,Soja,Insetos,Dichelops melacanthus,Percevejo barriga verde,Soja,Insetos,Edessa meditabunda,Fedorento; Percevejo-asa-preta,Soja,Insetos,Elasmopalpus lignosellus,Broca-do-colo; Lagarta-elasmo,Soja,Insetos,Empoasca kraemeri,Cigarrinha; Cigarrinha-verde,Soja,Insetos,Epicauta atomaria,Burrinho-da-batatinha; Vaquinha-das-solanáceas,Soja,Insetos,Epinotia aporema,Broca-das-axilas; Broca-das-axilas-da-soja,Soja,Insetos,Etiella zinckenella,Broca-da-vagem; Lagarta-das-vagens,Soja, ,, 
Classificação,Nome Científico,Nome(s) Alternativo(s),Cultura
Insetos,Crysodeixis includens,Lagarta-falsa-medideira,Soja
Insetos,Diabrotica speciosa,Larva-alfinete; Vaquinha-verde-amarela,Soja
Insetos,Dichelops furcatus,Percevejo-barriga-verde,Soja
Insetos,Dichelops melacanthus,Percevejo barriga verde,Soja
Insetos,Edessa meditabunda,Fedorento; Percevejo-asa-preta,Soja
Insetos,Elasmopalpus lignosellus,Broca-do-colo; Lagarta-elasmo,Soja
Insetos,Empoasca kraemeri,Cigarrinha; Cigarrinha-verde,Soja
Insetos,Epicauta atomaria,Burrinho-da-batatinha; Vaquinha-das-solanáceas,Soja
Insetos,Epinotia aporema,Broca-das-axilas; Broca-das-axilas-da-soja,Soja
Insetos,Etiella zinckenella,Broca-da-vagem; Lagarta-das-vagens,Soja
 ,, 
Classificação,Nome Científico,Nome(s) Alternativo(s),Cultura
Consulta de Praga
 Dados da Praga, Dados da Praga
 Dados da Praga
"Classificação Nome Científico Nome(s) Alternativo(s) Cultura
Insetos Euschistus heros Percevejo-marrom Soja
Insetos Frankliniella rodeos Tripes Soja
Insetos Frankliniella schultzei Tripes Soja
Insetos Hedylepta indicata Lagarta-do-feijão; Lagarta-enroladeira-das-folhas Soja
Insetos Helicoverpa armigera Lagarta-do-algodão Soja
Insetos Helicoverpa sp. Helicoverpa Soja
Insetos Helicoverpa zea Broca-grande-do-fruto; Broca-grande-do-tomate Soja
Insetos Heliothis virescens Lagarta-das-maçãs Soja
Insetos Julus hesperus Piolho-de-cobra Soja
Insetos Julus sp. Piolho de cobra Soja


   ",Classificação,Nome Científico,Nome(s) Alternativo(s),Cultura,Insetos,Euschistus heros,Percevejo-marrom,Soja,Insetos,Frankliniella rodeos,Tripes,Soja,Insetos,Frankliniella schultzei,Tripes,Soja,Insetos,Hedylepta indicata,Lagarta-do-feijão; Lagarta-enroladeira-das-folhas,Soja,Insetos,Helicoverpa armigera,Lagarta-do-algodão,Soja,Insetos,Helicoverpa sp.,Helicoverpa,Soja,Insetos,Helicoverpa zea,Broca-grande-do-fruto; Broca-grande-do-tomate,Soja,Insetos,Heliothis virescens,Lagarta-das-maçãs,Soja,Insetos,Julus hesperus,Piolho-de-cobra,Soja,Insetos,Julus sp.,Piolho de cobra,Soja, ,, 
Classificação,Nome Científico,Nome(s) Alternativo(s),Cultura
Insetos,Euschistus heros,Percevejo-marrom,Soja
Insetos,Frankliniella rodeos,Tripes,Soja
Insetos,Frankliniella schultzei,Tripes,Soja
Insetos,Hedylepta indicata,Lagarta-do-feijão; Lagarta-enroladeira-das-folhas,Soja
Insetos,Helicoverpa armigera,Lagarta-do-algodão,Soja
Insetos,Helicoverpa sp.,Helicoverpa,Soja
Insetos,Helicoverpa zea,Broca-grande-do-fruto; Broca-grande-do-tomate,Soja
Insetos,Heliothis virescens,Lagarta-das-maçãs,Soja
Insetos,Julus hesperus,Piolho-de-cobra,Soja
Insetos,Julus sp.,Piolho de cobra,Soja
 ,, 
Classificação,Nome Científico,Nome(s) Alternativo(s),Cultura
Consulta de Praga
 Dados da Praga, Dados da Praga
 Dados da Praga
"Classificação Nome Científico Nome(s) Alternativo(s) Cultura
Insetos Liogenys fuscus Bicho-bolo; Coró; Pão-de-galinha Soja
Insetos Lyogenis suturalis Coró Soja
Insetos Maecolaspis calcarisera Metálico Soja
Insetos Maecolaspis calcarisera Metálico Soja
Insetos Maruca testulalis Broca-das-vagens Soja
Insetos Megascelis aeroginosa Cascudinho-verde Soja
Insetos Megascelis calcarifera Cascudinho-verde Soja
Insetos Melanagromyza sojae Mosca-da-haste Soja
Insetos Mocis latipes Curuquerê-dos-capinzais; Mocis Soja
Insetos Mononychellus planki Ácaro-verde; Ácaro-verde-do-feijoeiro Soja


   ",Classificação,Nome Científico,Nome(s) Alternativo(s),Cultura,Insetos,Liogenys fuscus,Bicho-bolo; Coró; Pão-de-galinha,Soja,Insetos,Lyogenis suturalis,Coró,Soja,Insetos,Maecolaspis calcarisera,Metálico,Soja,Insetos,Maecolaspis calcarisera,Metálico,Soja,Insetos,Maruca testulalis,Broca-das-vagens,Soja,Insetos,Megascelis aeroginosa,Cascudinho-verde,Soja,Insetos,Megascelis calcarifera,Cascudinho-verde,Soja,Insetos,Melanagromyza sojae,Mosca-da-haste,Soja,Insetos,Mocis latipes,Curuquerê-dos-capinzais; Mocis,Soja,Insetos,Mononychellus planki,Ácaro-verde; Ácaro-verde-do-feijoeiro,Soja, ,, 
Classificação,Nome Científico,Nome(s) Alternativo(s),Cultura
Insetos,Liogenys fuscus,Bicho-bolo; Coró; Pão-de-galinha,Soja
Insetos,Lyogenis suturalis,Coró,Soja
Insetos,Maecolaspis calcarisera,Metálico,Soja
Insetos,Maecolaspis calcarisera,Metálico,Soja
Insetos,Maruca testulalis,Broca-das-vagens,Soja
Insetos,Megascelis aeroginosa,Cascudinho-verde,Soja
Insetos,Megascelis calcarifera,Cascudinho-verde,Soja
Insetos,Melanagromyza sojae,Mosca-da-haste,Soja
Insetos,Mocis latipes,Curuquerê-dos-capinzais; Mocis,Soja
Insetos,Mononychellus planki,Ácaro-verde; Ácaro-verde-do-feijoeiro,Soja
 ,, 
Classificação,Nome Científico,Nome(s) Alternativo(s),Cultura
Consulta de Praga
 Dados da Praga, Dados da Praga
 Dados da Praga
"Classificação Nome Científico Nome(s) Alternativo(s) Cultura
Insetos Myzus persicae Pulgão-verde; Pulgão-verde-claro Soja
Insetos Nezara viridula Fede-fede; Percevejo-verde Soja
Insetos Omiodes indicata Lagarta das folhas; Lagarta do feijão Soja
Insetos Phyllophaga capillata Coró-da-soja-do-cerrado Soja
Insetos Phyllophaga cuyabana Coró Soja
Insetos Piezodorus guildinii Percevejo-pequeno; Percevejo-verde-pequeno Soja
Insetos Plodia interpunctella Traça-dos-cereais; Traça-indiana-da-farinha Soja
Insetos Polyphagotarsonemus latus Ácaro-branco Soja
Insetos Porcellio laevis Piolho-de-cobra Soja
Insetos Procornitermes triacifer Cupim-de-monte; Cupim-de-montículo Soja


   ",Classificação,Nome Científico,Nome(s) Alternativo(s),Cultura,Insetos,Myzus persicae,Pulgão-verde; Pulgão-verde-claro,Soja,Insetos,Nezara viridula,Fede-fede; Percevejo-verde,Soja,Insetos,Omiodes indicata,Lagarta das folhas; Lagarta do feijão,Soja,Insetos,Phyllophaga capillata,Coró-da-soja-do-cerrado,Soja,Insetos,Phyllophaga cuyabana,Coró,Soja,Insetos,Piezodorus guildinii,Percevejo-pequeno; Percevejo-verde-pequeno,Soja,Insetos,Plodia interpunctella,Traça-dos-cereais; Traça-indiana-da-farinha,Soja,Insetos,Polyphagotarsonemus latus,Ácaro-branco,Soja,Insetos,Porcellio laevis,Piolho-de-cobra,Soja,Insetos,Procornitermes triacifer,Cupim-de-monte; Cupim-de-montículo,Soja, ,, 
Classificação,Nome Científico,Nome(s) Alternativo(s),Cultura
Insetos,Myzus persicae,Pulgão-verde; Pulgão-verde-claro,Soja
Insetos,Nezara viridula,Fede-fede; Percevejo-verde,Soja
Insetos,Omiodes indicata,Lagarta das folhas; Lagarta do feijão,Soja
Insetos,Phyllophaga capillata,Coró-da-soja-do-cerrado,Soja
Insetos,Phyllophaga cuyabana,Coró,Soja
Insetos,Piezodorus guildinii,Percevejo-pequeno; Percevejo-verde-pequeno,Soja
Insetos,Plodia interpunctella,Traça-dos-cereais; Traça-indiana-da-farinha,Soja
Insetos,Polyphagotarsonemus latus,Ácaro-branco,Soja
Insetos,Porcellio laevis,Piolho-de-cobra,Soja
Insetos,Procornitermes triacifer,Cupim-de-monte; Cupim-de-montículo,Soja
 ,, 
Classificação,Nome Científico,Nome(s) Alternativo(s),Cultura
Consulta de Praga
 Dados da Praga, Dados da Praga
 Dados da Praga
"Classificação Nome Científico Nome(s) Alternativo(s) Cultura
Insetos Pseudoplusia includens Lagarta-do-linho; Lagarta-falsa-medideira Soja
Insetos Rachiplusia nu Lagarta-falsa-medideira; Lagarta-mede-palmo Soja
Insetos Rhammatocerus schistocercoides Criolo; Gafanhoto Soja
Insetos Rhopalosiphum maidis Pulgão-do-milho; Pulgão-dos-cereais Soja
Insetos Scaptocoris castanea Percevejo-castanho Soja
Insetos Schistocerca spp. Gafanhoto Soja
Insetos Sitophilus oryzae CARUNCHO-DOS-CEREAIS Soja
Insetos Sitophilus zeamais gorgulho Soja
Insetos Smynthurodes betae Pulgão-da-raiz Soja
Insetos Spodoptera cosmioides Lagarta-marrom Soja


   ",Classificação,Nome Científico,Nome(s) Alternativo(s),Cultura,Insetos,Pseudoplusia includens,Lagarta-do-linho; Lagarta-falsa-medideira,Soja,Insetos,Rachiplusia nu,Lagarta-falsa-medideira; Lagarta-mede-palmo,Soja,Insetos,Rhammatocerus schistocercoides,Criolo; Gafanhoto,Soja,Insetos,Rhopalosiphum maidis,Pulgão-do-milho; Pulgão-dos-cereais,Soja,Insetos,Scaptocoris castanea,Percevejo-castanho,Soja,Insetos,Schistocerca spp.,Gafanhoto,Soja,Insetos,Sitophilus oryzae,CARUNCHO-DOS-CEREAIS,Soja,Insetos,Sitophilus zeamais,gorgulho,Soja,Insetos,Smynthurodes betae,Pulgão-da-raiz,Soja,Insetos,Spodoptera cosmioides,Lagarta-marrom,Soja, ,, 
Classificação,Nome Científico,Nome(s) Alternativo(s),Cultura
Insetos,Pseudoplusia includens,Lagarta-do-linho; Lagarta-falsa-medideira,Soja
Insetos,Rachiplusia nu,Lagarta-falsa-medideira; Lagarta-mede-palmo,Soja
Insetos,Rhammatocerus schistocercoides,Criolo; Gafanhoto,Soja
Insetos,Rhopalosiphum maidis,Pulgão-do-milho; Pulgão-dos-cereais,Soja
Insetos,Scaptocoris castanea,Percevejo-castanho,Soja
Insetos,Schistocerca spp.,Gafanhoto,Soja
Insetos,Sitophilus oryzae,CARUNCHO-DOS-CEREAIS,Soja
Insetos,Sitophilus zeamais,gorgulho,Soja
Insetos,Smynthurodes betae,Pulgão-da-raiz,Soja
Insetos,Spodoptera cosmioides,Lagarta-marrom,Soja
 ,, 
Classificação,Nome Científico,Nome(s) Alternativo(s),Cultura
Consulta de Praga
 Dados da Praga, Dados da Praga
 Dados da Praga
"Classificação Nome Científico Nome(s) Alternativo(s) Cultura
Insetos Spodoptera eridania Lagarta-das-folhas; Lagarta-das-vagens Soja
Insetos Spodoptera frugiperda Lagarta-do-cartucho; Lagarta-militar Soja
Insetos Spodoptera latifascia Lagarta-das-vagens Soja
Insetos Sternechus subsignatus Gorgulho-da-soja; Tamanduá-da-soja Soja
Insetos Tetranychus desertorum Ácaro-vermelho Soja
Insetos Tetranychus urticae Ácaro-rajado Soja
Insetos Tribolium castaneum Besouro-castanho Soja
Insetos Trichoplusia ni Falsa-medideira-da-couve; Lagarta-mede-palmo Soja
Insetos Urbanus proteus Lagarta-cabeça-de-fósforo Soja


   ",Classificação,Nome Científico,Nome(s) Alternativo(s),Cultura,Insetos,Spodoptera eridania,Lagarta-das-folhas; Lagarta-das-vagens,Soja,Insetos,Spodoptera frugiperda,Lagarta-do-cartucho; Lagarta-militar,Soja,Insetos,Spodoptera latifascia,Lagarta-das-vagens,Soja,Insetos,Sternechus subsignatus,Gorgulho-da-soja; Tamanduá-da-soja,Soja,Insetos,Tetranychus desertorum,Ácaro-vermelho,Soja,Insetos,Tetranychus urticae,Ácaro-rajado,Soja,Insetos,Tribolium castaneum,Besouro-castanho,Soja,Insetos,Trichoplusia ni,Falsa-medideira-da-couve; Lagarta-mede-palmo,Soja,Insetos,Urbanus proteus,Lagarta-cabeça-de-fósforo,Soja, ,, 
Classificação,Nome Científico,Nome(s) Alternativo(s),Cultura
Insetos,Spodoptera eridania,Lagarta-das-folhas; Lagarta-das-vagens,Soja
Insetos,Spodoptera frugiperda,Lagarta-do-cartucho; Lagarta-militar,Soja
Insetos,Spodoptera latifascia,Lagarta-das-vagens,Soja
Insetos,Sternechus subsignatus,Gorgulho-da-soja; Tamanduá-da-soja,Soja
Insetos,Tetranychus desertorum,Ácaro-vermelho,Soja
Insetos,Tetranychus urticae,Ácaro-rajado,Soja
Insetos,Tribolium castaneum,Besouro-castanho,Soja
Insetos,Trichoplusia ni,Falsa-medideira-da-couve; Lagarta-mede-palmo,Soja
Insetos,Urbanus proteus,Lagarta-cabeça-de-fósforo,Soja
 ,, 
